3
3
4
4
4
4
5
5
5
5
7
7
8
8
8
8
9
9
10
10
13
13
15
15
15
15
16
16
17
17
18
18
20
20
21
21
21
21
22
22
23
23
24
24
24
24
24
24
25
25
25
25
26
26
26
26
28
28
28
28
28
28
29
29
30
30
30
30
32
32
32
32
32
32
33
33
33
33
35
35
35
35
36
36
36
36
38
38
38
38
39
39
39
39
39
39
39
39
40
40
40
40
40
40
41
41
44
44
44
44
45
45
45
45
45
45
47
47
47
47
47
47
48
48
51
51
51
51
52
52
53
53
53
53
53
53
55
55
58
58
60
60
60
60
61
61
61
61
61
61
64
64
64
64
64
64
65
65
66
66
67
67
67
67
67
67
69
69
72
72
73
73
73
73
74
74
75
75
75
75
75
75
77
77
77
77
79
79
79
79
79
79
80
80
81
81
84
84
84
84
89
89
89
89
90
90
91
91
91
91
91
91
91
91
93
93
93
93
95
95
96
96
97
97
98
98
98
98
100
100
100
100
103
103
103
103
104
104
105
105
105
105
105
105
106
106
108
108
108
108
109
109
109
109
110
110
112
112
113
113
114
114
116
116
117
117
118
118
118
118
119
119
119
119
120
120
120
120
121
121
122
122
122
122
123
123
125
125
125
125
126
126
126
126
126
126
129
129
130
130
130
130
130
130
130
130
132
132
132
132
133
133
134
134
134
134
134
134
135
135
136
136
138
138
139
139
141
141
142
142
143
143
145
145
145
145
145
145
146
146
148
148
149
149
149
149
151
151
153
153
157
157
157
157
158
158
158
158
158
158
159
159
159
159
160
160
161
161
161
161
163
163
163
163
164
164
164
164
166
166
166
166
167
167
169
169
169
169
171
171
172
172
173
173
174
174
175
175
175
175
175
175
176
176
177
177
178
178
180
180
180
180
182
182
183
183
184
184
184
184
185
185
185
185
185
185
186
186
187
187
187
187
190
190
190
190
191
191
192
192
192
192
193
193
193
193
194
194
195
195
195
195
196
196
196
196
197
197
201
201
201
201
202
202
202
202
203
203
204
204
205
205
206
206
207
207
207
207
207
207
208
208
209
209
211
211
213
213
213
213
214
214
217
217
218
218
219
219
219
219
219
219
220
220
220
220
223
223
224
224
224
224
224
224
224
224
225
225
225
225
227
227
227
227
227
227
228
228
232
232
233
233
233
233
236
236
239
239
241
241
241
241
241
241
244
244
245
245
245
245
245
245
246
246
246
246
247
247
247
247
248
248
248
248
250
250
251
251
251
251
251
251
252
252
254
254
254
254
255
255
255
255
259
259
260
260
261
261
263
263
264
264
265
265
266
266
266
266
266
266
268
268
268
268
268
268
269
269
269
269
270
270
270
270
271
271
272
272
276
276
276
276
277
277
278
278
279
279
281
281
282
282
283
283
285
285
288
288
289
289
289
289
289
289
292
292
292
292
293
293
294
294
294
294
299
299
300
300
300
300
305
305
306
306
307
307
308
308
309
309
309
309
312
312
312
312
313
313
314
314
314
314
315
315
316
316
316
316
318
318
318
318
319
319
320
320
321
321
322
322
323
323
324
324
324
324
325
325
325
325
327
327
328
328
329
329
330
330
331
331
331
331
333
333
334
334
334
334
337
337
339
339
340
340
341
341
342
342
342
342
343
343
344
344
345
345
345
345
347
347
348
348
348
348
348
348
349
349
349
349
349
349
352
352
352
352
353
353
356
356
356
356
356
356
356
356
357
357
359
359
360
360
361
361
361
361
362
362
362
362
364
364
364
364
365
365
366
366
368
368
369
369
369
369
371
371
371
371
372
372
372
372
372
372
373
373
374
374
377
377
377
377
378
378
378
378
381
381
382
382
382
382
382
382
382
382
384
384
384
384
384
384
385
385
385
385
385
385
386
386
386
386
387
387
387
387
393
393
395
395
397
397
397
397
397
397
398
398
399
399
400
400
402
402
404
404
406
406
410
410
411
411
411
411
411
411
411
411
413
413
414
414
415
415
417
417
417
417
418
418
421
421
421
421
422
422
424
424
424
424
425
425
426
426
426
426
430
430
430
430
432
432
432
432
433
433
434
434
434
434
434
434
435
435
436
436
437
437
437
437
438
438
439
439
441
441
441
441
443
443
443
443
443
443
444
444
445
445
446
446
447
447
448
448
448
448
450
450
450
450
453
453
453
453
453
453
455
455
456
456
456
456
457
457
458
458
458
458
460
460
460
460
461
461
461
461
462
462
463
463
463
463
464
464
465
465
465
465
466
466
466
466
468
468
469
469
470
470
473
473
473
473
473
473
477
477
477
477
478
478
478
478
479
479
481
481
482
482
482
482
482
482
485
485
485
485
486
486
488
488
492
492
492
492
493
493
493
493
494
494
500
500
500
500
500
500
501
501
501
501
502
502
502
502
503
503
505
505
505
505
507
507
507
507
508
508
509
509
510
510
512
512
512
512
513
513
514
514
517
517
518
518
521
521
521
521
522
522
525
525
527
527
528
528
528
528
528
528
528
528
528
528
528
528
530
530
531
531
531
531
531
531
531
531
531
531
531
531
533
533
534
534
534
534
535
535
535
535
536
536
537
537
538
538
538
538
540
540
541
541
542
542
543
543
543
543
546
546
546
546
547
547
547
547
548
548
549
549
549
549
549
549
550
550
550
550
551
551
552
552
552
552
558
558
559
559
560
560
560
560
563
563
563
563
565
565
565
565
566
566
566
566
566
566
567
567
569
569
570
570
572
572
575
575
576
576
577
577
577
577
579
579
580
580
585
585
586
586
587
587
588
588
588
588
589
589
589
589
590
590
591
591
591
591
591
591
591
591
591
591
591
591
592
592
593
593
593
593
596
596
597
597
598
598
599
599
599
599
600
600
601
601
602
602
603
603
605
605
605
605
605
605
605
605
606
606
606
606
607
607
608
608
608
608
609
609
612
612
613
613
613
613
614
614
614
614
615
615
618
618
618
618
619
619
619
619
619
619
620
620
620
620
622
622
626
626
627
627
627
627
628
628
628
628
628
628
629
629
629
629
629
629
632
632
634
634
636
636
636
636
636
636
637
637
638
638
639
639
640
640
641
641
641
641
642
642
642
642
644
644
645
645
647
647
647
647
648
648
650
650
652
652
652
652
657
657
657
657
660
660
661
661
662
662
663
663
664
664
665
665
665
665
668
668
669
669
669
669
670
670
671
671
671
671
673
673
673
673
675
675
675
675
675
675
676
676
677
677
677
677
677
677
678
678
679
679
680
680
681
681
681
681
683
683
684
684
687
687
688
688
688
688
689
689
690
690
690
690
691
691
691
691
692
692
692
692
693
693
693
693
696
696
697
697
697
697
699
699
699
699
700
700
700
700
701
701
702
702
703
703
703
703
703
703
703
703
705
705
707
707
707
707
707
707
708
708
708
708
709
709
711
711
711
711
712
712
712
712
713
713
714
714
715
715
715
715
716
716
717
717
717
717
718
718
719
719
723
723
724
724
726
726
728
728
731
731
731
731
733
733
735
735
735
735
737
737
737
737
737
737
738
738
739
739
740
740
740
740
742
742
743
743
744
744
744
744
744
744
745
745
745
745
745
745
746
746
747
747
747
747
748
748
751
751
751
751
751
751
753
753
754
754
755
755
755
755
756
756
756
756
756
756
757
757
758
758
758
758
759
759
762
762
763
763
766
766
768
768
768
768
768
768
769
769
769
769
770
770
771
771
771
771
772
772
772
772
773
773
774
774
775
775
776
776
777
777
777
777
778
778
778
778
778
778
780
780
780
780
780
780
783
783
784
784
788
788
788
788
790
790
790
790
790
790
793
793
793
793
794
794
795
795
795
795
796
796
798
798
798
798
799
799
799
799
799
799
801
801
801
801
801
801
802
802
803
803
803
803
804
804
804
804
804
804
806
806
806
806
807
807
807
807
808
808
809
809
809
809
810
810
811
811
811
811
813
813
813
813
817
817
819
819
820
820
820
820
820
820
820
820
821
821
822
822
822
822
823
823
824
824
824
824
825
825
825
825
826
826
828
828
829
829
829
829
830
830
833
833
836
836
836
836
837
837
837
837
838
838
838
838
838
838
839
839
840
840
841
841
842
842
842
842
844
844
846
846
846
846
846
846
847
847
848
848
848
848
849
849
849
849
849
849
850
850
854
854
855
855
855
855
856
856
858
858
859
859
861
861
862
862
862
862
863
863
866
866
866
866
867
867
868
868
868
868
869
869
870
870
872
872
873
873
873
873
875
875
875
875
876
876
878
878
880
880
882
882
882
882
883
883
883
883
885
885
885
885
888
888
889
889
890
890
892
892
892
892
893
893
895
895
895
895
896
896
897
897
897
897
899
899
900
900
903
903
903
903
904
904
905
905
908
908
912
912
913
913
914
914
919
919
919
919
921
921
921
921
921
921
921
921
922
922
924
924
924
924
925
925
925
925
928
928
929
929
930
930
932
932
933
933
934
934
935
935
936
936
936
936
936
936
938
938
938
938
938
938
941
941
942
942
942
942
945
945
947
947
948
948
948
948
949
949
949
949
949
949
949
949
951
951
952
952
952
952
952
952
955
955
955
955
955
955
957
957
958
958
959
959
961
961
962
962
962
962
964
964
965
965
965
965
965
965
965
965
966
966
967
967
968
968
969
969
971
971
972
972
973
973
974
974
976
976
980
980
981
981
983
983
985
985
985
985
985
985
985
985
988
988
988
988
989
989
990
990
993
993
993
993
994
994
995
995
997
997
998
998
1001
1001
1001
1001
1001
1001
1003
1003
1007
1007
1008
1008
1010
1010
1011
1011
1014
1014
1016
1016
1016
1016
1017
1017
1017
1017
1019
1019
1020
1020
1020
1020
1021
1021
1022
1022
1024
1024
1024
1024
1025
1025
1026
1026
1026
1026
1027
1027
1028
1028
1028
1028
1030
1030
1033
1033
1033
1033
1034
1034
1037
1037
1039
1039
1039
1039
1040
1040
1042
1042
1042
1042
1043
1043
1044
1044
1044
1044
1044
1044
1045
1045
1046
1046
1048
1048
1050
1050
1051
1051
1054
1054
1055
1055
1055
1055
1056
1056
1056
1056
1059
1059
1059
1059
1061
1061
1062
1062
1065
1065
1066
1066
1066
1066
1066
1066
1067
1067
1073
1073
1075
1075
1076
1076
1077
1077
1080
1080
1081
1081
1082
1082
1082
1082
1082
1082
1082
1082
1082
1082
1084
1084
1085
1085
1086
1086
1086
1086
1086
1086
1087
1087
1087
1087
1088
1088
1089
1089
1090
1090
1090
1090
1090
1090
1091
1091
1091
1091
1092
1092
1092
1092
1096
1096
1096
1096
1097
1097
1097
1097
1101
1101
1102
1102
1106
1106
1107
1107
1108
1108
1108
1108
1109
1109
1109
1109
1109
1109
1112
1112
1114
1114
1114
1114
1114
1114
1116
1116
1116
1116
1120
1120
1127
1127
1128
1128
1128
1128
1131
1131
1131
1131
1131
1131
1131
1131
1132
1132
1132
1132
1134
1134
1134
1134
1135
1135
1135
1135
1135
1135
1135
1135
1137
1137
1137
1137
1137
1137
1138
1138
1138
1138
1139
1139
1139
1139
1139
1139
1141
1141
1141
1141
1142
1142
1143
1143
1143
1143
1143
1143
1144
1144
1145
1145
1145
1145
1146
1146
1146
1146
1147
1147
1147
1147
1149
1149
1149
1149
1151
1151
1152
1152
1154
1154
1154
1154
1154
1154
1154
1154
1156
1156
1156
1156
1157
1157
1158
1158
1160
1160
1160
1160
1161
1161
1161
1161
1164
1164
1164
1164
1164
1164
1164
1164
1165
1165
1165
1165
1165
1165
1166
1166
1168
1168
1170
1170
1175
1175
1175
1175
1176
1176
1178
1178
1179
1179
1180
1180
1180
1180
1180
1180
1183
1183
1184
1184
1185
1185
1187
1187
1192
1192
1194
1194
1195
1195
1195
1195
1196
1196
1197
1197
1201
1201
1201
1201
1202
1202
1203
1203
1205
1205
1206
1206
1206
1206
1207
1207
1208
1208
1211
1211
1213
1213
1214
1214
1216
1216
1216
1216
1218
1218
1218
1218
1218
1218
1219
1219
1219
1219
1220
1220
1220
1220
1221
1221
1222
1222
1223
1223
1223
1223
1230
1230
1231
1231
1232
1232
1232
1232
1233
1233
1235
1235
1236
1236
1238
1238
1241
1241
1241
1241
1244
1244
1244
1244
1244
1244
1244
1244
1244
1244
1246
1246
1246
1246
1247
1247
1250
1250
1252
1252
1254
1254
1255
1255
1256
1256
1257
1257
1258
1258
1258
1258
1259
1259
1259
1259
1259
1259
1260
1260
1261
1261
1262
1262
1262
1262
1264
1264
1265
1265
1267
1267
1268
1268
1268
1268
1271
1271
1273
1273
1273
1273
1274
1274
1274
1274
1275
1275
1276
1276
1276
1276
1276
1276
1276
1276
1279
1279
1279
1279
1280
1280
1280
1280
1280
1280
1280
1280
1281
1281
1281
1281
1282
1282
1283
1283
1283
1283
1284
1284
1285
1285
1290
1290
1293
1293
1294
1294
1295
1295
1296
1296
1296
1296
1297
1297
1297
1297
1298
1298
1299
1299
1299
1299
1300
1300
1300
1300
1302
1302
1303
1303
1304
1304
1305
1305
1307
1307
1308
1308
1310
1310
1312
1312
1312
1312
1313
1313
1314
1314
1314
1314
1315
1315
1317
1317
1318
1318
1318
1318
1319
1319
1319
1319
1320
1320
1320
1320
1322
1322
1322
1322
1323
1323
1327
1327
1328
1328
1328
1328
1330
1330
1331
1331
1331
1331
1331
1331
1332
1332
1333
1333
1336
1336
1338
1338
1340
1340
1342
1342
1344
1344
1344
1344
1346
1346
1347
1347
1347
1347
1347
1347
1347
1347
1348
1348
1348
1348
1348
1348
1349
1349
1350
1350
1351
1351
1351
1351
1351
1351
1351
1351
1353
1353
1355
1355
1355
1355
1356
1356
1358
1358
1358
1358
1359
1359
1359
1359
1359
1359
1360
1360
1360
1360
1362
1362
1363
1363
1364
1364
1369
1369
1369
1369
1370
1370
1372
1372
1372
1372
1374
1374
1374
1374
1374
1374
1376
1376
1376
1376
1377
1377
1378
1378
1379
1379
1382
1382
1383
1383
1386
1386
1386
1386
1386
1386
1387
1387
1387
1387
1388
1388
1388
1388
1389
1389
1390
1390
1390
1390
1391
1391
1392
1392
1393
1393
1393
1393
1394
1394
1397
1397
1397
1397
1399
1399
1399
1399
1399
1399
1399
1399
1400
1400
1401
1401
1402
1402
1403
1403
1403
1403
1404
1404
1405
1405
1407
1407
1409
1409
1409
1409
1409
1409
1410
1410
1411
1411
1412
1412
1413
1413
1414
1414
1415
1415
1416
1416
1417
1417
1417
1417
1417
1417
1419
1419
1419
1419
1419
1419
1419
1419
1420
1420
1423
1423
1425
1425
1425
1425
1426
1426
1427
1427
1428
1428
1429
1429
1430
1430
1437
1437
1439
1439
1439
1439
1441
1441
1442
1442
1444
1444
1446
1446
1447
1447
1447
1447
1448
1448
1450
1450
1451
1451
1451
1451
1452
1452
1452
1452
1452
1452
1453
1453
1453
1453
1456
1456
1456
1456
1457
1457
1459
1459
1459
1459
1461
1461
1461
1461
1461
1461
1461
1461
1463
1463
1465
1465
1465
1465
1465
1465
1465
1465
1465
1465
1466
1466
1466
1466
1467
1467
1467
1467
1468
1468
1469
1469
1469
1469
1470
1470
1472
1472
1473
1473
1473
1473
1475
1475
1475
1475
1477
1477
1477
1477
1481
1481
1482
1482
1483
1483
1483
1483
1483
1483
1485
1485
1485
1485
1486
1486
1487
1487
1487
1487
1487
1487
1487
1487
1488
1488
1491
1491
1491
1491
1492
1492
1492
1492
1495
1495
1496
1496
1496
1496
1497
1497
1497
1497
1499
1499
1499
1499
1500
1500
1502
1502
1502
1502
1503
1503
1505
1505
1506
1506
1506
1506
1508
1508
1510
1510
1510
1510
1511
1511
1511
1511
1512
1512
1513
1513
1514
1514
1514
1514
1514
1514
1516
1516
1517
1517
1517
1517
1517
1517
1518
1518
1519
1519
1519
1519
1521
1521
1521
1521
1521
1521
1521
1521
1521
1521
1523
1523
1531
1531
1532
1532
1532
1532
1533
1533
1533
1533
1534
1534
1535
1535
1536
1536
1536
1536
1536
1536
1537
1537
1537
1537
1538
1538
1538
1538
1539
1539
1539
1539
1542
1542
1542
1542
1542
1542
1543
1543
1543
1543
1548
1548
1548
1548
1549
1549
1549
1549
1550
1550
1551
1551
1554
1554
1555
1555
1555
1555
1556
1556
1558
1558
1558
1558
1559
1559
1560
1560
1561
1561
1562
1562
1563
1563
1565
1565
1566
1566
1566
1566
1567
1567
1567
1567
1567
1567
1568
1568
1568
1568
1569
1569
1570
1570
1570
1570
1570
1570
1571
1571
1573
1573
1573
1573
1576
1576
1576
1576
1576
1576
1577
1577
1578
1578
1579
1579
1580
1580
1582
1582
1582
1582
1584
1584
1584
1584
1589
1589
1590
1590
1591
1591
1592
1592
1592
1592
1593
1593
1593
1593
1594
1594
1594
1594
1594
1594
1596
1596
1597
1597
1599
1599
1599
1599
1599
1599
1602
1602
1602
1602
1603
1603
1603
1603
1605
1605
1606
1606
1607
1607
1607
1607
1608
1608
1608
1608
1608
1608
1609
1609
1612
1612
1613
1613
1614
1614
1616
1616
1616
1616
1617
1617
1617
1617
1619
1619
1619
1619
1621
1621
1621
1621
1621
1621
1622
1622
1623
1623
1625
1625
1625
1625
1625
1625
1626
1626
1626
1626
1627
1627
1628
1628
1628
1628
1631
1631
1631
1631
1631
1631
1634
1634
1635
1635
1635
1635
1637
1637
1640
1640
1643
1643
1643
1643
1643
1643
1645
1645
1645
1645
1645
1645
1646
1646
1646
1646
1646
1646
1647
1647
1649
1649
1649
1649
1652
1652
1653
1653
1654
1654
1655
1655
1655
1655
1658
1658
1659
1659
1659
1659
1660
1660
1660
1660
1660
1660
1661
1661
1662
1662
1663
1663
1664
1664
1667
1667
1667
1667
1668
1668
1669
1669
1669
1669
1670
1670
1670
1670
1670
1670
1670
1670
1670
1670
1673
1673
1673
1673
1674
1674
1674
1674
1677
1677
1677
1677
1678
1678
1680
1680
1682
1682
1683
1683
1684
1684
1684
1684
1685
1685
1689
1689
1691
1691
1691
1691
1693
1693
1694
1694
1694
1694
1694
1694
1695
1695
1698
1698
1700
1700
1700
1700
1700
1700
1701
1701
1702
1702
1704
1704
1706
1706
1707
1707
1710
1710
1710
1710
1711
1711
1711
1711
1713
1713
1714
1714
1715
1715
1716
1716
1720
1720
1721
1721
1723
1723
1724
1724
1726
1726
1727
1727
1727
1727
1727
1727
1728
1728
1730
1730
1731
1731
1732
1732
1734
1734
1735
1735
1736
1736
1738
1738
1738
1738
1739
1739
1739
1739
1740
1740
1740
1740
1741
1741
1746
1746
1746
1746
1747
1747
1747
1747
1747
1747
1747
1747
1748
1748
1749
1749
1752
1752
1754
1754
1755
1755
1755
1755
1755
1755
1756
1756
1756
1756
1756
1756
1757
1757
1757
1757
1758
1758
1758
1758
1760
1760
1761
1761
1761
1761
1762
1762
1762
1762
1763
1763
1765
1765
1767
1767
1768
1768
1768
1768
1769
1769
1769
1769
1770
1770
1770
1770
1770
1770
1771
1771
1772
1772
1772
1772
1773
1773
1777
1777
1778
1778
1782
1782
1782
1782
1783
1783
1783
1783
1785
1785
1788
1788
1791
1791
1792
1792
1794
1794
1794
1794
1794
1794
1794
1794
1795
1795
1795
1795
1795
1795
1796
1796
1796
1796
1796
1796
1797
1797
1797
1797
1799
1799
1799
1799
1802
1802
1802
1802
1803
1803
1805
1805
1805
1805
1808
1808
1808
1808
1809
1809
1812
1812
1813
1813
1816
1816
1818
1818
1819
1819
1819
1819
1819
1819
1822
1822
1825
1825
1825
1825
1825
1825
1825
1825
1825
1825
1825
1825
1826
1826
1827
1827
1830
1830
1830
1830
1831
1831
1834
1834
1835
1835
1835
1835
1836
1836
1838
1838
1839
1839
1839
1839
1840
1840
1841
1841
1842
1842
1842
1842
1843
1843
1844
1844
1844
1844
1845
1845
1846
1846
1846
1846
1847
1847
1847
1847
1850
1850
1851
1851
1851
1851
1852
1852
1854
1854
1854
1854
1857
1857
1858
1858
1858
1858
1859
1859
1863
1863
1867
1867
1867
1867
1869
1869
1870
1870
1870
1870
1871
1871
1873
1873
1874
1874
1878
1878
1879
1879
1880
1880
1881
1881
1882
1882
1882
1882
1885
1885
1885
1885
1886
1886
1888
1888
1888
1888
1891
1891
1891
1891
1891
1891
1892
1892
1892
1892
1892
1892
1893
1893
1893
1893
1897
1897
1897
1897
1897
1897
1897
1897
1898
1898
1899
1899
1899
1899
1900
1900
1902
1902
1902
1902
1902
1902
1903
1903
1905
1905
1905
1905
1906
1906
1907
1907
1909
1909
1910
1910
1911
1911
1912
1912
1912
1912
1913
1913
1914
1914
1915
1915
1918
1918
1919
1919
1920
1920
1920
1920
1921
1921
1924
1924
1925
1925
1925
1925
1925
1925
1925
1925
1926
1926
1926
1926
1927
1927
1928
1928
1928
1928
1929
1929
1929
1929
1930
1930
1931
1931
1931
1931
1932
1932
1934
1934
1934
1934
1935
1935
1937
1937
1939
1939
1940
1940
1941
1941
1941
1941
1942
1942
1943
1943
1944
1944
1944
1944
1945
1945
1949
1949
1949
1949
1950
1950
1951
1951
1952
1952
1952
1952
1954
1954
1956
1956
1958
1958
1959
1959
1960
1960
1960
1960
1961
1961
1961
1961
1962
1962
1963
1963
1963
1963
1964
1964
1964
1964
1968
1968
1968
1968
1969
1969
1970
1970
1970
1970
1971
1971
1973
1973
1973
1973
1973
1973
1974
1974
1975
1975
1976
1976
1977
1977
1978
1978
1978
1978
1978
1978
1978
1978
1979
1979
1979
1979
1981
1981
1982
1982
1983
1983
1984
1984
1985
1985
1987
1987
1988
1988
1988
1988
1988
1988
1991
1991
1991
1991
1991
1991
1991
1991
1992
1992
1994
1994
1999
1999
1999
1999
1999
1999
2000
2000
2001
2001
2001
2001
2002
2002
2002
2002
2003
2003
2003
2003
2004
2004
2005
2005
2005
2005
2005
2005
2007
2007
2008
2008
2009
2009
2009
2009
2009
2009
2011
2011
2011
2011
2015
2015
2016
2016
2017
2017
2019
2019
2019
2019
2019
2019
2020
2020
2021
2021
2022
2022
2024
2024
2024
2024
2024
2024
2024
2024
2027
2027
2029
2029
2032
2032
2033
2033
2034
2034
2035
2035
2035
2035
2037
2037
2037
2037
2037
2037
2038
2038
2039
2039
2039
2039
2043
2043
2043
2043
2045
2045
2046
2046
2048
2048
2048
2048
2049
2049
2050
2050
2051
2051
2051
2051
2052
2052
2052
2052
2053
2053
2054
2054
2055
2055
2058
2058
2059
2059
2059
2059
2060
2060
2062
2062
2064
2064
2064
2064
2067
2067
2068
2068
2068
2068
2070
2070
2071
2071
2072
2072
2073
2073
2075
2075
2076
2076
2077
2077
2078
2078
2079
2079
2080
2080
2080
2080
2080
2080
2081
2081
2085
2085
2086
2086
2087
2087
2088
2088
2088
2088
2088
2088
2089
2089
2092
2092
2094
2094
2094
2094
2094
2094
2094
2094
2095
2095
2095
2095
2096
2096
2098
2098
2100
2100
2102
2102
2103
2103
2103
2103
2105
2105
2110
2110
2112
2112
2113
2113
2114
2114
2115
2115
2120
2120
2123
2123
2123
2123
2124
2124
2127
2127
2128
2128
2129
2129
2129
2129
2129
2129
2129
2129
2129
2129
2129
2129
2130
2130
2130
2130
2130
2130
2131
2131
2131
2131
2131
2131
2132
2132
2133
2133
2135
2135
2136
2136
2136
2136
2136
2136
2137
2137
2137
2137
2139
2139
2139
2139
2140
2140
2142
2142
2143
2143
2146
2146
2146
2146
2147
2147
2147
2147
2148
2148
2151
2151
2151
2151
2152
2152
2152
2152
2157
2157
2158
2158
2159
2159
2160
2160
2162
2162
2162
2162
2162
2162
2164
2164
2166
2166
2166
2166
2166
2166
2166
2166
2166
2166
2167
2167
2168
2168
2168
2168
2169
2169
2173
2173
2174
2174
2175
2175
2175
2175
2175
2175
2175
2175
2177
2177
2177
2177
2178
2178
2178
2178
2178
2178
2180
2180
2182
2182
2182
2182
2184
2184
2184
2184
2184
2184
2186
2186
2187
2187
2188
2188
2189
2189
2189
2189
2190
2190
2191
2191
2191
2191
2191
2191
2191
2191
2193
2193
2194
2194
2197
2197
2199
2199
2200
2200
2200
2200
2201
2201
2201
2201
2201
2201
2203
2203
2203
2203
2203
2203
2204
2204
2204
2204
2204
2204
2206
2206
2206
2206
2207
2207
2208
2208
2208
2208
2210
2210
2210
2210
2211
2211
2212
2212
2212
2212
2213
2213
2217
2217
2218
2218
2219
2219
2219
2219
2220
2220
2220
2220
2221
2221
2223
2223
2225
2225
2228
2228
2228
2228
2229
2229
2229
2229
2229
2229
2230
2230
2233
2233
2233
2233
2234
2234
2234
2234
2235
2235
2235
2235
2237
2237
2237
2237
2239
2239
2239
2239
2240
2240
2240
2240
2241
2241
2242
2242
2244
2244
2246
2246
2248
2248
2248
2248
2248
2248
2250
2250
2255
2255
2256
2256
2256
2256
2257
2257
2259
2259
2260
2260
2260
2260
2260
2260
2261
2261
2262
2262
2262
2262
2264
2264
2265
2265
2266
2266
2267
2267
2268
2268
2269
2269
2269
2269
2269
2269
2273
2273
2273
2273
2273
2273
2275
2275
2276
2276
2276
2276
2277
2277
2277
2277
2278
2278
2278
2278
2279
2279
2280
2280
2280
2280
2282
2282
2283
2283
2283
2283
2284
2284
2286
2286
2286
2286
2288
2288
2290
2290
2293
2293
2293
2293
2294
2294
2295
2295
2296
2296
2302
2302
2302
2302
2303
2303
2305
2305
2309
2309
2310
2310
2311
2311
2314
2314
2314
2314
2315
2315
2317
2317
2319
2319
2320
2320
2320
2320
2320
2320
2322
2322
2322
2322
2324
2324
2324
2324
2324
2324
2327
2327
2328
2328
2328
2328
2328
2328
2329
2329
2331
2331
2333
2333
2333
2333
2334
2334
2335
2335
2336
2336
2338
2338
2338
2338
2339
2339
2339
2339
2339
2339
2341
2341
2342
2342
2344
2344
2344
2344
2345
2345
2349
2349
2349
2349
2352
2352
2353
2353
2354
2354
2356
2356
2356
2356
2357
2357
2359
2359
2360
2360
2360
2360
2361
2361
2362
2362
2362
2362
2364
2364
2364
2364
2364
2364
2366
2366
2366
2366
2367
2367
2367
2367
2368
2368
2369
2369
2371
2371
2371
2371
2371
2371
2372
2372
2373
2373
2375
2375
2375
2375
2375
2375
2376
2376
2379
2379
2379
2379
2379
2379
2379
2379
2380
2380
2381
2381
2382
2382
2382
2382
2385
2385
2385
2385
2386
2386
2389
2389
2389
2389
2392
2392
2393
2393
2395
2395
2396
2396
2396
2396
2397
2397
2398
2398
2398
2398
2399
2399
2400
2400
2401
2401
2401
2401
2402
2402
2402
2402
2403
2403
2403
2403
2407
2407
2407
2407
2408
2408
2409
2409
2410
2410
2414
2414
2414
2414
2414
2414
2415
2415
2416
2416
2416
2416
2416
2416
2417
2417
2424
2424
2424
2424
2425
2425
2425
2425
2426
2426
2426
2426
2426
2426
2426
2426
2427
2427
2428
2428
2429
2429
2429
2429
2430
2430
2431
2431
2431
2431
2431
2431
2432
2432
2432
2432
2433
2433
2436
2436
2438
2438
2440
2440
2442
2442
2444
2444
2444
2444
2444
2444
2445
2445
2445
2445
2449
2449
2450
2450
2450
2450
2451
2451
2452
2452
2452
2452
2455
2455
2456
2456
2459
2459
2460
2460
2460
2460
2460
2460
2462
2462
2463
2463
2463
2463
2467
2467
2468
2468
2468
2468
2469
2469
2470
2470
2472
2472
2473
2473
2473
2473
2474
2474
2474
2474
2474
2474
2475
2475
2475
2475
2476
2476
2477
2477
2477
2477
2479
2479
2479
2479
2480
2480
2481
2481
2483
2483
2484
2484
2484
2484
2485
2485
2486
2486
2486
2486
2487
2487
2489
2489
2489
2489
2489
2489
2491
2491
2492
2492
2492
2492
2493
2493
2495
2495
2496
2496
2496
2496
2496
2496
2497
2497
2498
2498
2498
2498
2499
2499
2501
2501
2501
2501
2502
2502
2503
2503
2503
2503
2504
2504
2505
2505
2507
2507
2507
2507
2507
2507
2508
2508
2508
2508
2508
2508
2510
2510
2511
2511
2511
2511
2512
2512
2513
2513
2514
2514
2515
2515
2515
2515
2516
2516
2516
2516
2517
2517
2517
2517
2517
2517
2518
2518
2520
2520
2521
2521
2522
2522
2528
2528
2528
2528
2529
2529
2529
2529
2533
2533
2534
2534
2535
2535
2535
2535
2535
2535
2535
2535
2538
2538
2538
2538
2540
2540
2541
2541
2542
2542
2543
2543
2546
2546
2546
2546
2547
2547
2547
2547
2548
2548
2549
2549
2549
2549
2549
2549
2550
2550
2551
2551
2551
2551
2551
2551
2552
2552
2552
2552
2553
2553
2555
2555
2556
2556
2556
2556
2556
2556
2559
2559
2560
2560
2561
2561
2562
2562
2563
2563
2563
2563
2567
2567
2568
2568
2568
2568
2569
2569
2569
2569
2569
2569
2571
2571
2572
2572
2572
2572
2573
2573
2574
2574
2575
2575
2576
2576
2576
2576
2578
2578
2578
2578
2578
2578
2579
2579
2581
2581
2583
2583
2584
2584
2585
2585
2586
2586
2586
2586
2588
2588
2590
2590
2590
2590
2590
2590
2590
2590
2591
2591
2591
2591
2591
2591
2593
2593
2596
2596
2597
2597
2599
2599
2599
2599
2601
2601
2601
2601
2601
2601
2602
2602
2602
2602
2605
2605
2606
2606
2609
2609
2610
2610
2610
2610
2611
2611
2611
2611
2611
2611
2612
2612
2612
2612
2613
2613
2614
2614
2614
2614
2616
2616
2616
2616
2617
2617
2618
2618
2618
2618
2619
2619
2619
2619
2623
2623
2625
2625
2625
2625
2625
2625
2626
2626
2627
2627
2627
2627
2628
2628
2630
2630
2630
2630
2630
2630
2631
2631
2631
2631
2632
2632
2637
2637
2638
2638
2638
2638
2638
2638
2638
2638
2639
2639
2639
2639
2640
2640
2640
2640
2641
2641
2641
2641
2643
2643
2648
2648
2650
2650
2650
2650
2651
2651
2651
2651
2653
2653
2654
2654
2655
2655
2655
2655
2657
2657
2658
2658
2660
2660
2661
2661
2661
2661
2663
2663
2665
2665
2665
2665
2665
2665
2666
2666
2666
2666
2666
2666
2667
2667
2667
2667
2668
2668
2668
2668
2670
2670
2671
2671
2673
2673
2673
2673
2674
2674
2674
2674
2675
2675
2676
2676
2677
2677
2677
2677
2678
2678
2679
2679
2680
2680
2683
2683
2683
2683
2683
2683
2684
2684
2685
2685
2686
2686
2688
2688
2688
2688
2689
2689
2689
2689
2691
2691
2694
2694
2694
2694
2696
2696
2698
2698
2698
2698
2698
2698
2699
2699
2700
2700
2701
2701
2703
2703
2704
2704
2704
2704
2706
2706
2708
2708
2710
2710
2710
2710
2710
2710
2713
2713
2713
2713
2714
2714
2715
2715
2715
2715
2716
2716
2718
2718
2719
2719
2720
2720
2721
2721
2721
2721
2725
2725
2726
2726
2728
2728
2728
2728
2728
2728
2730
2730
2730
2730
2732
2732
2735
2735
2736
2736
2736
2736
2737
2737
2738
2738
2740
2740
2741
2741
2741
2741
2742
2742
2743
2743
2744
2744
2744
2744
2744
2744
2745
2745
2749
2749
2750
2750
2751
2751
2754
2754
2754
2754
2756
2756
2756
2756
2758
2758
2759
2759
2760
2760
2761
2761
2762
2762
2763
2763
2763
2763
2763
2763
2764
2764
2764
2764
2764
2764
2765
2765
2766
2766
2766
2766
2766
2766
2767
2767
2769
2769
2769
2769
2770
2770
2772
2772
2773
2773
2773
2773
2773
2773
2774
2774
2774
2774
2775
2775
2776
2776
2776
2776
2777
2777
2778
2778
2779
2779
2781
2781
2783
2783
2783
2783
2784
2784
2785
2785
2785
2785
2785
2785
2787
2787
2788
2788
2788
2788
2789
2789
2790
2790
2791
2791
2791
2791
2793
2793
2794
2794
2794
2794
2795
2795
2796
2796
2797
2797
2798
2798
2800
2800
2801
2801
2803
2803
2805
2805
2806
2806
2807
2807
2807
2807
2811
2811
2812
2812
2815
2815
2817
2817
2818
2818
2821
2821
2825
2825
2825
2825
2826
2826
2827
2827
2827
2827
2828
2828
2828
2828
2829
2829
2830
2830
2831
2831
2831
2831
2832
2832
2832
2832
2832
2832
2833
2833
2835
2835
2838
2838
2838
2838
2840
2840
2840
2840
2840
2840
2843
2843
2844
2844
2844
2844
2845
2845
2845
2845
2845
2845
2846
2846
2849
2849
2850
2850
2850
2850
2851
2851
2852
2852
2854
2854
2855
2855
2856
2856
2857
2857
2857
2857
2858
2858
2859
2859
2860
2860
2862
2862
2863
2863
2866
2866
2867
2867
2868
2868
2869
2869
2869
2869
2870
2870
2872
2872
2873
2873
2873
2873
2875
2875
2875
2875
2877
2877
2877
2877
2883
2883
2883
2883
2884
2884
2884
2884
2885
2885
2887
2887
2887
2887
2888
2888
2889
2889
2889
2889
2890
2890
2890
2890
2891
2891
2893
2893
2893
2893
2894
2894
2894
2894
2898
2898
2898
2898
2899
2899
2899
2899
2901
2901
2905
2905
2906
2906
2906
2906
2908
2908
2908
2908
2911
2911
2913
2913
2914
2914
2916
2916
2917
2917
2918
2918
2918
2918
2919
2919
2922
2922
2923
2923
2923
2923
2924
2924
2924
2924
2925
2925
2925
2925
2926
2926
2927
2927
2927
2927
2929
2929
2929
2929
2930
2930
2931
2931
2932
2932
2933
2933
2933
2933
2933
2933
2934
2934
2935
2935
2936
2936
2938
2938
2939
2939
2939
2939
2939
2939
2940
2940
2942
2942
2943
2943
2943
2943
2944
2944
2946
2946
2946
2946
2947
2947
2947
2947
2947
2947
2949
2949
2952
2952
2953
2953
2954
2954
2954
2954
2955
2955
2955
2955
2955
2955
2955
2955
2958
2958
2958
2958
2958
2958
2959
2959
2960
2960
2961
2961
2961
2961
2964
2964
2964
2964
2965
2965
2967
2967
2968
2968
2969
2969
2972
2972
2975
2975
2976
2976
2976
2976
2977
2977
2979
2979
2980
2980
2980
2980
2982
2982
2983
2983
2985
2985
2985
2985
2987
2987
2987
2987
2988
2988
2988
2988
2988
2988
2989
2989
2989
2989
2989
2989
2990
2990
2990
2990
2991
2991
2992
2992
2992
2992
2994
2994
2994
2994
2995
2995
2996
2996
2997
2997
2997
2997
2997
2997
2998
2998
2999
2999
2999
2999
3000
3000
3001
3001
3002
3002
3003
3003
3005
3005
3005
3005
3007
3007
3007
3007
3008
3008
3008
3008
3008
3008
3009
3009
3010
3010
3010
3010
3010
3010
3011
3011
3011
3011
3011
3011
3013
3013
3013
3013
3014
3014
3015
3015
3018
3018
3020
3020
3023
3023
3023
3023
3027
3027
3028
3028
3028
3028
3029
3029
3030
3030
3031
3031
3032
3032
3032
3032
3032
3032
3033
3033
3033
3033
3034
3034
3034
3034
3036
3036
3036
3036
3036
3036
3037
3037
3038
3038
3039
3039
3039
3039
3040
3040
3040
3040
3042
3042
3043
3043
3044
3044
3045
3045
3045
3045
3046
3046
3046
3046
3046
3046
3047
3047
3049
3049
3051
3051
3051
3051
3053
3053
3053
3053
3053
3053
3054
3054
3054
3054
3055
3055
3056
3056
3056
3056
3059
3059
3059
3059
3059
3059
3060
3060
3062
3062
3062
3062
3064
3064
3066
3066
3069
3069
3070
3070
3073
3073
3074
3074
3075
3075
3076
3076
3076
3076
3077
3077
3077
3077
3077
3077
3078
3078
3081
3081
3081
3081
3081
3081
3083
3083
3083
3083
3083
3083
3085
3085
3086
3086
3089
3089
3089
3089
3091
3091
3094
3094
3095
3095
3095
3095
3096
3096
3097
3097
3097
3097
3098
3098
3099
3099
3100
3100
3100
3100
3102
3102
3103
3103
3103
3103
3104
3104
3104
3104
3105
3105
3106
3106
3109
3109
3110
3110
3111
3111
3111
3111
3112
3112
3112
3112
3112
3112
3112
3112
3113
3113
3114
3114
3116
3116
3116
3116
3117
3117
3119
3119
3119
3119
3119
3119
3120
3120
3120
3120
3123
3123
3124
3124
3125
3125
3126
3126
3126
3126
3126
3126
3127
3127
3133
3133
3133
3133
3134
3134
3137
3137
3137
3137
3137
3137
3138
3138
3138
3138
3139
3139
3139
3139
3142
3142
3143
3143
3144
3144
3145
3145
3145
3145
3145
3145
3146
3146
3146
3146
3147
3147
3150
3150
3152
3152
3152
3152
3153
3153
3153
3153
3155
3155
3157
3157
3157
3157
3157
3157
3157
3157
3160
3160
3162
3162
3162
3162
3162
3162
3163
3163
3163
3163
3164
3164
3166
3166
3167
3167
3167
3167
3168
3168
3171
3171
3172
3172
3173
3173
3173
3173
3175
3175
3175
3175
3175
3175
3175
3175
3176
3176
3178
3178
3180
3180
3181
3181
3182
3182
3182
3182
3182
3182
3182
3182
3183
3183
3184
3184
3184
3184
3187
3187
3187
3187
3188
3188
3188
3188
3189
3189
3189
3189
3189
3189
3189
3189
3190
3190
3191
3191
3191
3191
3192
3192
3192
3192
3193
3193
3196
3196
3196
3196
3196
3196
3196
3196
3196
3196
3197
3197
3198
3198
3200
3200
3200
3200
3201
3201
3202
3202
3203
3203
3204
3204
3204
3204
3208
3208
3208
3208
3213
3213
3213
3213
3213
3213
3214
3214
3216
3216
3216
3216
3217
3217
3218
3218
3218
3218
3218
3218
3219
3219
3219
3219
3221
3221
3221
3221
3221
3221
3223
3223
3224
3224
3224
3224
3225
3225
3225
3225
3227
3227
3228
3228
3229
3229
3229
3229
3229
3229
3230
3230
3232
3232
3232
3232
3232
3232
3234
3234
3235
3235
3236
3236
3237
3237
3238
3238
3239
3239
3239
3239
3239
3239
3242
3242
3242
3242
3243
3243
3245
3245
3246
3246
3247
3247
3247
3247
3248
3248
3249
3249
3250
3250
3251
3251
3254
3254
3254
3254
3255
3255
3260
3260
3262
3262
3264
3264
3265
3265
3265
3265
3266
3266
3266
3266
3268
3268
3268
3268
3270
3270
3272
3272
3273
3273
3273
3273
3278
3278
3279
3279
3280
3280
3280
3280
3281
3281
3285
3285
3287
3287
3287
3287
3288
3288
3289
3289
3289
3289
3290
3290
3292
3292
3292
3292
3293
3293
3293
3293
3295
3295
3295
3295
3296
3296
3299
3299
3299
3299
3300
3300
3300
3300
3301
3301
3302
3302
3303
3303
3303
3303
3306
3306
3307
3307
3307
3307
3309
3309
3311
3311
3313
3313
3314
3314
3314
3314
3316
3316
3316
3316
3319
3319
3321
3321
3321
3321
3321
3321
3323
3323
3324
3324
3327
3327
3327
3327
3328
3328
3328
3328
3328
3328
3329
3329
3331
3331
3331
3331
3333
3333
3333
3333
3334
3334
3336
3336
3337
3337
3337
3337
3338
3338
3338
3338
3339
3339
3339
3339
3341
3341
3341
3341
3343
3343
3343
3343
3344
3344
3345
3345
3345
3345
3345
3345
3346
3346
3347
3347
3347
3347
3348
3348
3349
3349
3352
3352
3352
3352
3353
3353
3353
3353
3353
3353
3354
3354
3355
3355
3361
3361
3363
3363
3365
3365
3368
3368
3368
3368
3369
3369
3369
3369
3371
3371
3372
3372
3373
3373
3374
3374
3375
3375
3377
3377
3378
3378
3378
3378
3379
3379
3380
3380
3381
3381
3382
3382
3384
3384
3384
3384
3385
3385
3385
3385
3386
3386
3386
3386
3387
3387
3389
3389
3389
3389
3391
3391
3391
3391
3391
3391
3394
3394
3396
3396
3399
3399
3400
3400
3400
3400
3400
3400
3401
3401
3401
3401
3401
3401
3402
3402
3403
3403
3403
3403
3404
3404
3404
3404
3405
3405
3406
3406
3406
3406
3407
3407
3408
3408
3409
3409
3409
3409
3410
3410
3410
3410
3410
3410
3411
3411
3411
3411
3411
3411
3413
3413
3413
3413
3413
3413
3413
3413
3414
3414
3415
3415
3415
3415
3417
3417
3418
3418
3418
3418
3419
3419
3419
3419
3420
3420
3420
3420
3420
3420
3420
3420
3423
3423
3424
3424
3425
3425
3425
3425
3426
3426
3428
3428
3428
3428
3429
3429
3430
3430
3431
3431
3431
3431
3432
3432
3432
3432
3433
3433
3434
3434
3436
3436
3437
3437
3437
3437
3438
3438
3439
3439
3442
3442
3444
3444
3444
3444
3444
3444
3445
3445
3446
3446
3447
3447
3447
3447
3448
3448
3450
3450
3453
3453
3453
3453
3457
3457
3457
3457
3457
3457
3459
3459
3459
3459
3460
3460
3460
3460
3461
3461
3462
3462
3464
3464
3465
3465
3468
3468
3468
3468
3471
3471
3471
3471
3472
3472
3473
3473
3474
3474
3474
3474
3477
3477
3479
3479
3479
3479
3480
3480
3481
3481
3482
3482
3484
3484
3484
3484
3485
3485
3486
3486
3487
3487
3489
3489
3490
3490
3492
3492
3495
3495
3495
3495
3496
3496
3497
3497
3497
3497
3497
3497
3499
3499
3499
3499
3499
3499
3500
3500
3500
3500
3501
3501
3502
3502
3503
3503
3503
3503
3507
3507
3507
3507
3510
3510
3514
3514
3518
3518
3521
3521
3522
3522
3523
3523
3523
3523
3525
3525
3525
3525
3526
3526
3526
3526
3528
3528
3528
3528
3529
3529
3529
3529
3529
3529
3530
3530
3530
3530
3531
3531
3531
3531
3532
3532
3534
3534
3534
3534
3535
3535
3535
3535
3536
3536
3537
3537
3538
3538
3539
3539
3541
3541
3542
3542
3542
3542
3542
3542
3543
3543
3543
3543
3544
3544
3545
3545
3547
3547
3547
3547
3548
3548
3549
3549
3551
3551
3551
3551
3554
3554
3555
3555
3555
3555
3557
3557
3557
3557
3559
3559
3560
3560
3560
3560
3562
3562
3563
3563
3563
3563
3566
3566
3569
3569
3570
3570
3570
3570
3573
3573
3574
3574
3577
3577
3581
3581
3582
3582
3582
3582
3586
3586
3586
3586
3586
3586
3588
3588
3591
3591
3591
3591
3593
3593
3594
3594
3595
3595
3596
3596
3597
3597
3597
3597
3598
3598
3601
3601
3601
3601
3604
3604
3605
3605
3607
3607
3607
3607
3608
3608
3609
3609
3611
3611
3611
3611
3611
3611
3612
3612
3613
3613
3614
3614
3615
3615
3615
3615
3616
3616
3616
3616
3616
3616
3616
3616
3618
3618
3622
3622
3622
3622
3623
3623
3624
3624
3624
3624
3625
3625
3625
3625
3627
3627
3627
3627
3627
3627
3631
3631
3632
3632
3633
3633
3636
3636
3636
3636
3637
3637
3637
3637
3639
3639
3639
3639
3640
3640
3640
3640
3641
3641
3642
3642
3643
3643
3645
3645
3646
3646
3649
3649
3652
3652
3654
3654
3656
3656
3658
3658
3658
3658
3659
3659
3660
3660
3661
3661
3661
3661
3662
3662
3662
3662
3663
3663
3664
3664
3665
3665
3666
3666
3667
3667
3668
3668
3668
3668
3668
3668
3669
3669
3669
3669
3671
3671
3671
3671
3672
3672
3675
3675
3675
3675
3675
3675
3679
3679
3680
3680
3681
3681
3681
3681
3683
3683
3685
3685
3688
3688
3688
3688
3689
3689
3689
3689
3690
3690
3692
3692
3692
3692
3693
3693
3693
3693
3693
3693
3694
3694
3695
3695
3695
3695
3696
3696
3696
3696
3696
3696
3696
3696
3699
3699
3702
3702
3702
3702
3702
3702
3703
3703
3704
3704
3705
3705
3705
3705
3705
3705
3705
3705
3706
3706
3708
3708
3708
3708
3709
3709
3709
3709
3709
3709
3709
3709
3709
3709
3710
3710
3711
3711
3711
3711
3711
3711
3713
3713
3713
3713
3714
3714
3714
3714
3715
3715
3719
3719
3719
3719
3720
3720
3720
3720
3721
3721
3722
3722
3723
3723
3723
3723
3723
3723
3726
3726
3728
3728
3730
3730
3730
3730
3731
3731
3731
3731
3731
3731
3732
3732
3733
3733
3733
3733
3734
3734
3735
3735
3737
3737
3738
3738
3739
3739
3739
3739
3739
3739
3740
3740
3741
3741
3742
3742
3744
3744
3745
3745
3746
3746
3747
3747
3749
3749
3749
3749
3750
3750
3754
3754
3755
3755
3756
3756
3762
3762
3762
3762
3762
3762
3763
3763
3763
3763
3764
3764
3765
3765
3765
3765
3768
3768
3768
3768
3770
3770
3770
3770
3771
3771
3772
3772
3772
3772
3773
3773
3773
3773
3773
3773
3774
3774
3774
3774
3775
3775
3777
3777
3777
3777
3779
3779
3781
3781
3784
3784
3784
3784
3785
3785
3786
3786
3786
3786
3788
3788
3788
3788
3788
3788
3788
3788
3789
3789
3790
3790
3790
3790
3791
3791
3791
3791
3791
3791
3791
3791
3793
3793
3793
3793
3793
3793
3794
3794
3796
3796
3797
3797
3799
3799
3799
3799
3800
3800
3801
3801
3804
3804
3806
3806
3807
3807
3808
3808
3808
3808
3809
3809
3813
3813
3813
3813
3814
3814
3815
3815
3815
3815
3817
3817
3819
3819
3820
3820
3820
3820
3821
3821
3823
3823
3824
3824
3824
3824
3824
3824
3827
3827
3828
3828
3830
3830
3832
3832
3832
3832
3834
3834
3835
3835
3836
3836
3836
3836
3838
3838
3839
3839
3841
3841
3842
3842
3843
3843
3843
3843
3844
3844
3844
3844
3844
3844
3846
3846
3848
3848
3850
3850
3851
3851
3852
3852
3853
3853
3854
3854
3855
3855
3855
3855
3857
3857
3858
3858
3858
3858
3859
3859
3861
3861
3861
3861
3862
3862
3862
3862
3863
3863
3863
3863
3863
3863
3865
3865
3868
3868
3868
3868
3869
3869
3870
3870
3872
3872
3874
3874
3875
3875
3876
3876
3876
3876
3877
3877
3878
3878
3878
3878
3878
3878
3879
3879
3879
3879
3879
3879
3880
3880
3884
3884
3886
3886
3886
3886
3886
3886
3889
3889
3890
3890
3892
3892
3893
3893
3893
3893
3894
3894
3894
3894
3895
3895
3896
3896
3898
3898
3898
3898
3899
3899
3901
3901
3901
3901
3903
3903
3903
3903
3903
3903
3905
3905
3907
3907
3909
3909
3909
3909
3910
3910
3911
3911
3911
3911
3914
3914
3915
3915
3916
3916
3916
3916
3916
3916
3917
3917
3918
3918
3920
3920
3921
3921
3923
3923
3925
3925
3925
3925
3926
3926
3927
3927
3928
3928
3929
3929
3929
3929
3930
3930
3931
3931
3931
3931
3933
3933
3933
3933
3933
3933
3933
3933
3934
3934
3934
3934
3935
3935
3935
3935
3936
3936
3936
3936
3936
3936
3937
3937
3937
3937
3937
3937
3937
3937
3938
3938
3938
3938
3939
3939
3939
3939
3941
3941
3941
3941
3943
3943
3945
3945
3945
3945
3946
3946
3948
3948
3948
3948
3949
3949
3949
3949
3949
3949
3955
3955
3955
3955
3955
3955
3955
3955
3955
3955
3956
3956
3956
3956
3957
3957
3957
3957
3958
3958
3959
3959
3960
3960
3960
3960
3960
3960
3960
3960
3961
3961
3961
3961
3965
3965
3965
3965
3965
3965
3966
3966
3967
3967
3967
3967
3968
3968
3969
3969
3969
3969
3971
3971
3971
3971
3971
3971
3972
3972
3973
3973
3973
3973
3977
3977
3978
3978
3979
3979
3981
3981
3983
3983
3984
3984
3991
3991
3993
3993
3993
3993
3994
3994
3996
3996
4000
4000
4000
4000
4002
4002
4005
4005
4007
4007
4008
4008
4009
4009
4009
4009
4011
4011
4012
4012
4012
4012
4012
4012
4013
4013
4013
4013
4013
4013
4014
4014
4014
4014
4014
4014
4015
4015
4016
4016
4016
4016
4016
4016
4018
4018
4018
4018
4018
4018
4019
4019
4020
4020
4021
4021
4021
4021
4023
4023
4023
4023
4024
4024
4024
4024
4024
4024
4026
4026
4029
4029
4032
4032
4034
4034
4034
4034
4034
4034
4035
4035
4035
4035
4038
4038
4038
4038
4039
4039
4041
4041
4042
4042
4043
4043
4043
4043
4044
4044
4044
4044
4045
4045
4045
4045
4046
4046
4047
4047
4047
4047
4048
4048
4049
4049
4052
4052
4053
4053
4053
4053
4055
4055
4055
4055
4055
4055
4055
4055
4055
4055
4056
4056
4056
4056
4056
4056
4057
4057
4059
4059
4060
4060
4061
4061
4066
4066
4066
4066
4068
4068
4070
4070
4072
4072
4076
4076
4076
4076
4078
4078
4079
4079
4080
4080
4080
4080
4080
4080
4080
4080
4081
4081
4083
4083
4083
4083
4084
4084
4084
4084
4085
4085
4086
4086
4088
4088
4089
4089
4094
4094
4095
4095
4097
4097
4099
4099
4101
4101
4102
4102
4102
4102
4104
4104
4105
4105
4105
4105
4107
4107
4107
4107
4107
4107
4109
4109
4109
4109
4113
4113
4114
4114
4116
4116
4116
4116
4117
4117
4117
4117
4118
4118
4119
4119
4120
4120
4120
4120
4121
4121
4122
4122
4122
4122
4123
4123
4124
4124
4125
4125
4126
4126
4132
4132
4133
4133
4133
4133
4134
4134
4134
4134
4134
4134
4136
4136
4136
4136
4137
4137
4138
4138
4138
4138
4139
4139
4139
4139
4139
4139
4140
4140
4140
4140
4141
4141
4141
4141
4142
4142
4143
4143
4145
4145
4145
4145
4145
4145
4146
4146
4146
4146
4146
4146
4147
4147
4151
4151
4151
4151
4153
4153
4155
4155
4160
4160
4161
4161
4165
4165
4166
4166
4166
4166
4167
4167
4167
4167
4168
4168
4169
4169
4171
4171
4171
4171
4171
4171
4173
4173
4173
4173
4179
4179
4179
4179
4180
4180
4181
4181
4181
4181
4183
4183
4183
4183
4184
4184
4186
4186
4186
4186
4186
4186
4186
4186
4188
4188
4192
4192
4198
4198
4199
4199
4200
4200
4205
4205
4205
4205
4205
4205
4206
4206
4207
4207
4208
4208
4208
4208
4208
4208
4209
4209
4209
4209
4210
4210
4210
4210
4211
4211
4216
4216
4216
4216
4217
4217
4218
4218
4218
4218
4220
4220
4222
4222
4222
4222
4222
4222
4225
4225
4225
4225
4228
4228
4229
4229
4230
4230
4230
4230
4230
4230
4230
4230
4231
4231
4232
4232
4233
4233
4234
4234
4235
4235
4237
4237
4237
4237
4238
4238
4238
4238
4239
4239
4243
4243
4244
4244
4246
4246
4247
4247
4247
4247
4248
4248
4251
4251
4252
4252
4257
4257
4257
4257
4258
4258
4259
4259
4259
4259
4261
4261
4262
4262
4264
4264
4264
4264
4264
4264
4265
4265
4267
4267
4269
4269
4269
4269
4270
4270
4271
4271
4274
4274
4274
4274
4275
4275
4276
4276
4278
4278
4278
4278
4279
4279
4280
4280
4280
4280
4283
4283
4284
4284
4284
4284
4285
4285
4285
4285
4288
4288
4288
4288
4288
4288
4290
4290
4293
4293
4293
4293
4295
4295
4297
4297
4298
4298
4299
4299
4300
4300
4300
4300
4301
4301
4301
4301
4303
4303
4304
4304
4306
4306
4307
4307
4307
4307
4307
4307
4308
4308
4308
4308
4308
4308
4309
4309
4309
4309
4311
4311
4312
4312
4312
4312
4312
4312
4313
4313
4313
4313
4314
4314
4314
4314
4315
4315
4315
4315
4315
4315
4317
4317
4317
4317
4318
4318
4321
4321
4323
4323
4324
4324
4324
4324
4324
4324
4325
4325
4326
4326
4328
4328
4328
4328
4328
4328
4328
4328
4330
4330
4331
4331
4332
4332
4332
4332
4333
4333
4334
4334
4334
4334
4335
4335
4336
4336
4339
4339
4339
4339
4339
4339
4340
4340
4341
4341
4341
4341
4342
4342
4343
4343
4345
4345
4348
4348
4350
4350
4350
4350
4354
4354
4354
4354
4357
4357
4360
4360
4361
4361
4361
4361
4363
4363
4364
4364
4364
4364
4371
4371
4371
4371
4371
4371
4375
4375
4375
4375
4376
4376
4376
4376
4381
4381
4382
4382
4382
4382
4383
4383
4383
4383
4385
4385
4385
4385
4386
4386
4386
4386
4388
4388
4389
4389
4390
4390
4391
4391
4391
4391
4391
4391
4391
4391
4393
4393
4394
4394
4394
4394
4395
4395
4397
4397
4398
4398
4398
4398
4399
4399
4400
4400
4401
4401
4402
4402
4402
4402
4406
4406
4408
4408
4409
4409
4409
4409
4409
4409
4409
4409
4414
4414
4417
4417
4417
4417
4419
4419
4419
4419
4421
4421
4422
4422
4422
4422
4423
4423
4424
4424
4424
4424
4424
4424
4424
4424
4424
4424
4426
4426
4426
4426
4428
4428
4429
4429
4431
4431
4432
4432
4432
4432
4433
4433
4433
4433
4436
4436
4438
4438
4438
4438
4438
4438
4441
4441
4442
4442
4444
4444
4446
4446
4446
4446
4446
4446
4447
4447
4447
4447
4448
4448
4448
4448
4451
4451
4453
4453
4453
4453
4454
4454
4454
4454
4455
4455
4456
4456
4457
4457
4457
4457
4458
4458
4459
4459
4460
4460
4462
4462
4463
4463
4463
4463
4463
4463
4465
4465
4467
4467
4469
4469
4471
4471
4473
4473
4474
4474
4475
4475
4475
4475
4476
4476
4478
4478
4478
4478
4479
4479
4479
4479
4479
4479
4480
4480
4481
4481
4481
4481
4482
4482
4484
4484
4484
4484
4484
4484
4485
4485
4485
4485
4486
4486
4487
4487
4490
4490
4491
4491
4492
4492
4493
4493
4494
4494
4495
4495
4496
4496
4496
4496
4497
4497
4497
4497
4497
4497
4498
4498
4501
4501
4504
4504
4504
4504
4504
4504
4504
4504
4505
4505
4505
4505
4506
4506
4508
4508
4509
4509
4512
4512
4512
4512
4512
4512
4512
4512
4513
4513
4513
4513
4514
4514
4518
4518
4519
4519
4520
4520
4521
4521
4522
4522
4522
4522
4522
4522
4522
4522
4523
4523
4523
4523
4524
4524
4525
4525
4525
4525
4527
4527
4527
4527
4528
4528
4528
4528
4528
4528
4528
4528
4528
4528
4529
4529
4531
4531
4532
4532
4533
4533
4534
4534
4534
4534
4535
4535
4535
4535
4535
4535
4536
4536
4536
4536
4537
4537
4537
4537
4544
4544
4544
4544
4545
4545
4546
4546
4547
4547
4548
4548
4548
4548
4548
4548
4552
4552
4553
4553
4554
4554
4555
4555
4556
4556
4557
4557
4557
4557
4558
4558
4559
4559
4559
4559
4560
4560
4561
4561
4561
4561
4562
4562
4562
4562
4564
4564
4565
4565
4566
4566
4567
4567
4568
4568
4568
4568
4568
4568
4570
4570
4570
4570
4570
4570
4571
4571
4571
4571
4572
4572
4575
4575
4576
4576
4578
4578
4580
4580
4581
4581
4581
4581
4583
4583
4584
4584
4587
4587
4588
4588
4588
4588
4589
4589
4589
4589
4589
4589
4592
4592
4592
4592
4593
4593
4594
4594
4595
4595
4596
4596
4596
4596
4597
4597
4599
4599
4599
4599
4601
4601
4601
4601
4603
4603
4604
4604
4606
4606
4606
4606
4607
4607
4607
4607
4607
4607
4608
4608
4610
4610
4610
4610
4611
4611
4611
4611
4617
4617
4617
4617
4618
4618
4618
4618
4621
4621
4621
4621
4621
4621
4622
4622
4624
4624
4626
4626
4626
4626
4626
4626
4627
4627
4627
4627
4628
4628
4628
4628
4632
4632
4634
4634
4635
4635
4636
4636
4639
4639
4639
4639
4641
4641
4641
4641
4641
4641
4643
4643
4644
4644
4645
4645
4645
4645
4646
4646
4647
4647
4647
4647
4648
4648
4649
4649
4652
4652
4653
4653
4653
4653
4654
4654
4655
4655
4656
4656
4661
4661
4661
4661
4665
4665
4666
4666
4667
4667
4668
4668
4669
4669
4669
4669
4670
4670
4673
4673
4674
4674
4674
4674
4675
4675
4678
4678
4679
4679
4679
4679
4680
4680
4681
4681
4682
4682
4682
4682
4682
4682
4685
4685
4686
4686
4686
4686
4688
4688
4688
4688
4690
4690
4690
4690
4692
4692
4692
4692
4692
4692
4694
4694
4695
4695
4695
4695
4695
4695
4696
4696
4696
4696
4699
4699
4700
4700
4701
4701
4702
4702
4703
4703
4704
4704
4707
4707
4708
4708
4710
4710
4710
4710
4711
4711
4712
4712
4712
4712
4714
4714
4714
4714
4716
4716
4720
4720
4720
4720
4720
4720
4721
4721
4722
4722
4724
4724
4724
4724
4725
4725
4726
4726
4726
4726
4726
4726
4727
4727
4728
4728
4728
4728
4729
4729
4729
4729
4729
4729
4730
4730
4736
4736
4736
4736
4737
4737
4738
4738
4740
4740
4744
4744
4744
4744
4745
4745
4745
4745
4746
4746
4746
4746
4748
4748
4749
4749
4751
4751
4752
4752
4754
4754
4755
4755
4755
4755
4756
4756
4756
4756
4758
4758
4758
4758
4758
4758
4759
4759
4760
4760
4763
4763
4764
4764
4765
4765
4766
4766
4766
4766
4767
4767
4768
4768
4768
4768
4769
4769
4769
4769
4769
4769
4771
4771
4771
4771
4773
4773
4773
4773
4774
4774
4776
4776
4776
4776
4776
4776
4777
4777
4778
4778
4779
4779
4780
4780
4781
4781
4783
4783
4783
4783
4784
4784
4784
4784
4786
4786
4786
4786
4786
4786
4790
4790
4790
4790
4792
4792
4794
4794
4795
4795
4795
4795
4796
4796
4796
4796
4799
4799
4799
4799
4800
4800
4800
4800
4802
4802
4803
4803
4803
4803
4804
4804
4804
4804
4806
4806
4806
4806
4807
4807
4808
4808
4808
4808
4808
4808
4809
4809
4811
4811
4814
4814
4816
4816
4816
4816
4818
4818
4818
4818
4819
4819
4819
4819
4820
4820
4822
4822
4824
4824
4830
4830
4831
4831
4831
4831
4832
4832
4833
4833
4836
4836
4837
4837
4838
4838
4839
4839
4843
4843
4843
4843
4843
4843
4844
4844
4846
4846
4846
4846
4848
4848
4848
4848
4850
4850
4852
4852
4852
4852
4852
4852
4853
4853
4855
4855
4856
4856
4857
4857
4857
4857
4858
4858
4858
4858
4858
4858
4860
4860
4861
4861
4861
4861
4862
4862
4863
4863
4863
4863
4863
4863
4869
4869
4870
4870
4872
4872
4874
4874
4874
4874
4874
4874
4874
4874
4876
4876
4877
4877
4877
4877
4878
4878
4880
4880
4880
4880
4881
4881
4881
4881
4882
4882
4882
4882
4883
4883
4884
4884
4885
4885
4887
4887
4889
4889
4889
4889
4890
4890
4890
4890
4890
4890
4891
4891
4892
4892
4892
4892
4892
4892
4893
4893
4894
4894
4894
4894
4894
4894
4895
4895
4899
4899
4900
4900
4900
4900
4900
4900
4901
4901
4901
4901
4902
4902
4902
4902
4902
4902
4904
4904
4904
4904
4905
4905
4905
4905
4906
4906
4907
4907
4907
4907
4907
4907
4910
4910
4911
4911
4911
4911
4911
4911
4912
4912
4912
4912
4913
4913
4913
4913
4914
4914
4914
4914
4915
4915
4915
4915
4915
4915
4917
4917
4917
4917
4919
4919
4919
4919
4919
4919
4921
4921
4921
4921
4921
4921
4922
4922
4923
4923
4924
4924
4924
4924
4925
4925
4926
4926
4927
4927
4928
4928
4928
4928
4929
4929
4929
4929
4930
4930
4932
4932
4935
4935
4937
4937
4938
4938
4939
4939
4941
4941
4942
4942
4945
4945
4945
4945
4945
4945
4945
4945
4947
4947
4948
4948
4948
4948
4950
4950
4953
4953
4954
4954
4955
4955
4958
4958
4958
4958
4958
4958
4959
4959
4959
4959
4959
4959
4961
4961
4962
4962
4964
4964
4964
4964
4968
4968
4968
4968
4969
4969
4969
4969
4970
4970
4974
4974
4974
4974
4977
4977
4978
4978
4979
4979
4982
4982
4983
4983
4984
4984
4984
4984
4987
4987
4989
4989
4990
4990
4991
4991
4993
4993
4994
4994
4994
4994
4995
4995
4996
4996
4996
4996
4997
4997
4999
4999
5000
5000
5000
5000
5001
5001
5002
5002
5003
5003
5006
5006
5007
5007
5008
5008
5010
5010
5010
5010
5010
5010
5011
5011
5012
5012
5012
5012
5014
5014
5015
5015
5017
5017
5018
5018
5020
5020
5026
5026
5026
5026
5027
5027
5028
5028
5028
5028
5030
5030
5030
5030
5030
5030
5031
5031
5034
5034
5034
5034
5034
5034
5034
5034
5034
5034
5037
5037
5037
5037
5039
5039
5041
5041
5042
5042
5042
5042
5044
5044
5046
5046
5046
5046
5047
5047
5047
5047
5048
5048
5051
5051
5051
5051
5052
5052
5052
5052
5055
5055
5055
5055
5056
5056
5058
5058
5060
5060
5061
5061
5061
5061
5064
5064
5064
5064
5064
5064
5065
5065
5065
5065
5066
5066
5066
5066
5067
5067
5069
5069
5069
5069
5071
5071
5071
5071
5073
5073
5074
5074
5075
5075
5075
5075
5077
5077
5078
5078
5078
5078
5079
5079
5079
5079
5080
5080
5080
5080
5082
5082
5082
5082
5084
5084
5084
5084
5085
5085
5088
5088
5088
5088
5089
5089
5089
5089
5089
5089
5093
5093
5093
5093
5094
5094
5095
5095
5095
5095
5096
5096
5096
5096
5098
5098
5100
5100
5101
5101
5101
5101
5102
5102
5104
5104
5105
5105
5105
5105
5106
5106
5110
5110
5110
5110
5110
5110
5111
5111
5113
5113
5113
5113
5114
5114
5115
5115
5116
5116
5117
5117
5120
5120
5121
5121
5121
5121
5123
5123
5123
5123
5124
5124
5124
5124
5126
5126
5127
5127
5127
5127
5129
5129
5130
5130
5131
5131
5132
5132
5132
5132
5133
5133
5133
5133
5133
5133
5135
5135
5136
5136
5137
5137
5138
5138
5141
5141
5143
5143
5144
5144
5146
5146
5146
5146
5147
5147
5148
5148
5150
5150
5150
5150
5150
5150
5151
5151
5151
5151
5152
5152
5152
5152
5152
5152
5153
5153
5154
5154
5154
5154
5155
5155
5155
5155
5155
5155
5158
5158
5161
5161
5161
5161
5162
5162
5162
5162
5163
5163
5164
5164
5166
5166
5166
5166
5167
5167
5168
5168
5168
5168
5170
5170
5171
5171
5172
5172
5173
5173
5173
5173
5174
5174
5174
5174
5176
5176
5179
5179
5180
5180
5180
5180
5180
5180
5182
5182
5182
5182
5183
5183
5184
5184
5185
5185
5186
5186
5186
5186
5186
5186
5187
5187
5187
5187
5189
5189
5190
5190
5190
5190
5194
5194
5197
5197
5200
5200
5200
5200
5201
5201
5203
5203
5204
5204
5205
5205
5206
5206
5206
5206
5207
5207
5208
5208
5208
5208
5209
5209
5210
5210
5211
5211
5211
5211
5212
5212
5213
5213
5213
5213
5214
5214
5217
5217
5218
5218
5219
5219
5219
5219
5219
5219
5220
5220
5222
5222
5223
5223
5224
5224
5225
5225
5228
5228
5228
5228
5231
5231
5231
5231
5231
5231
5232
5232
5232
5232
5232
5232
5233
5233
5234
5234
5235
5235
5235
5235
5236
5236
5240
5240
5240
5240
5241
5241
5241
5241
5245
5245
5247
5247
5249
5249
5250
5250
5250
5250
5252
5252
5254
5254
5255
5255
5256
5256
5256
5256
5256
5256
5256
5256
5256
5256
5257
5257
5258
5258
5259
5259
5262
5262
5265
5265
5267
5267
5268
5268
5269
5269
5271
5271
5271
5271
5277
5277
5278
5278
5278
5278
5282
5282
5282
5282
5282
5282
5282
5282
5283
5283
5284
5284
5284
5284
5285
5285
5285
5285
5286
5286
5288
5288
5288
5288
5289
5289
5289
5289
5290
5290
5290
5290
5290
5290
5292
5292
5294
5294
5295
5295
5295
5295
5296
5296
5297
5297
5297
5297
5297
5297
5297
5297
5298
5298
5299
5299
5301
5301
5301
5301
5304
5304
5304
5304
5304
5304
5305
5305
5307
5307
5308
5308
5308
5308
5308
5308
5309
5309
5310
5310
5312
5312
5312
5312
5315
5315
5316
5316
5317
5317
5318
5318
5319
5319
5320
5320
5320
5320
5322
5322
5322
5322
5325
5325
5326
5326
5327
5327
5328
5328
5329
5329
5331
5331
5333
5333
5334
5334
5335
5335
5337
5337
5338
5338
5340
5340
5340
5340
5340
5340
5340
5340
5341
5341
5342
5342
5343
5343
5344
5344
5344
5344
5345
5345
5346
5346
5348
5348
5348
5348
5350
5350
5350
5350
5351
5351
5352
5352
5352
5352
5354
5354
5356
5356
5357
5357
5357
5357
5357
5357
5359
5359
5361
5361
5364
5364
5365
5365
5366
5366
5369
5369
5369
5369
5371
5371
5373
5373
5373
5373
5374
5374
5374
5374
5374
5374
5374
5374
5375
5375
5376
5376
5380
5380
5380
5380
5381
5381
5381
5381
5381
5381
5382
5382
5384
5384
5386
5386
5387
5387
5389
5389
5390
5390
5391
5391
5391
5391
5391
5391
5394
5394
5395
5395
5397
5397
5397
5397
5397
5397
5399
5399
5399
5399
5400
5400
5401
5401
5402
5402
5404
5404
5405
5405
5406
5406
5407
5407
5408
5408
5408
5408
5408
5408
5409
5409
5409
5409
5410
5410
5412
5412
5414
5414
5414
5414
5415
5415
5415
5415
5417
5417
5417
5417
5417
5417
5418
5418
5419
5419
5419
5419
5420
5420
5420
5420
5421
5421
5422
5422
5422
5422
5426
5426
5427
5427
5428
5428
5428
5428
5428
5428
5430
5430
5430
5430
5435
5435
5435
5435
5435
5435
5437
5437
5437
5437
5438
5438
5441
5441
5441
5441
5441
5441
5442
5442
5443
5443
5444
5444
5451
5451
5452
5452
5453
5453
5454
5454
5454
5454
5454
5454
5455
5455
5457
5457
5457
5457
5459
5459
5459
5459
5460
5460
5460
5460
5464
5464
5466
5466
5469
5469
5469
5469
5469
5469
5470
5470
5470
5470
5471
5471
5471
5471
5471
5471
5471
5471
5472
5472
5473
5473
5474
5474
5474
5474
5475
5475
5476
5476
5476
5476
5479
5479
5480
5480
5481
5481
5481
5481
5481
5481
5481
5481
5482
5482
5483
5483
5485
5485
5485
5485
5485
5485
5486
5486
5486
5486
5487
5487
5488
5488
5488
5488
5488
5488
5489
5489
5489
5489
5492
5492
5493
5493
5494
5494
5494
5494
5495
5495
5496
5496
5496
5496
5497
5497
5497
5497
5497
5497
5497
5497
5498
5498
5498
5498
5498
5498
5500
5500
5500
5500
5501
5501
5505
5505
5505
5505
5506
5506
5507
5507
5508
5508
5509
5509
5509
5509
5511
5511
5511
5511
5512
5512
5512
5512
5512
5512
5512
5512
5513
5513
5515
5515
5517
5517
5518
5518
5518
5518
5518
5518
5519
5519
5519
5519
5520
5520
5520
5520
5521
5521
5521
5521
5522
5522
5524
5524
5524
5524
5525
5525
5525
5525
5529
5529
5529
5529
5530
5530
5530
5530
5531
5531
5531
5531
5532
5532
5533
5533
5534
5534
5535
5535
5536
5536
5537
5537
5537
5537
5538
5538
5541
5541
5542
5542
5543
5543
5544
5544
5546
5546
5546
5546
5547
5547
5548
5548
5548
5548
5549
5549
5550
5550
5550
5550
5550
5550
5551
5551
5551
5551
5551
5551
5551
5551
5552
5552
5554
5554
5554
5554
5554
5554
5555
5555
5555
5555
5557
5557
5557
5557
5557
5557
5561
5561
5561
5561
5562
5562
5565
5565
5565
5565
5566
5566
5568
5568
5568
5568
5568
5568
5568
5568
5570
5570
5570
5570
5570
5570
5570
5570
5573
5573
5576
5576
5577
5577
5581
5581
5582
5582
5585
5585
5585
5585
5585
5585
5586
5586
5586
5586
5587
5587
5589
5589
5590
5590
5591
5591
5591
5591
5593
5593
5593
5593
5594
5594
5594
5594
5598
5598
5598
5598
5599
5599
5599
5599
5600
5600
5601
5601
5604
5604
5605
5605
5606
5606
5607
5607
5608
5608
5609
5609
5611
5611
5612
5612
5612
5612
5613
5613
5613
5613
5614
5614
5616
5616
5617
5617
5617
5617
5617
5617
5618
5618
5620
5620
5621
5621
5621
5621
5622
5622
5624
5624
5624
5624
5625
5625
5625
5625
5625
5625
5626
5626
5626
5626
5626
5626
5627
5627
5628
5628
5629
5629
5629
5629
5630
5630
5630
5630
5630
5630
5630
5630
5631
5631
5631
5631
5631
5631
5631
5631
5635
5635
5636
5636
5636
5636
5636
5636
5637
5637
5637
5637
5639
5639
5639
5639
5639
5639
5640
5640
5640
5640
5640
5640
5641
5641
5641
5641
5642
5642
5644
5644
5645
5645
5648
5648
5649
5649
5650
5650
5651
5651
5652
5652
5653
5653
5653
5653
5654
5654
5654
5654
5654
5654
5655
5655
5656
5656
5656
5656
5659
5659
5660
5660
5661
5661
5661
5661
5662
5662
5663
5663
5663
5663
5663
5663
5664
5664
5666
5666
5667
5667
5667
5667
5667
5667
5669
5669
5669
5669
5671
5671
5671
5671
5672
5672
5672
5672
5673
5673
5673
5673
5673
5673
5673
5673
5674
5674
5674
5674
5675
5675
5675
5675
5676
5676
5676
5676
5677
5677
5679
5679
5679
5679
5679
5679
5680
5680
5681
5681
5685
5685
5686
5686
5687
5687
5688
5688
5688
5688
5689
5689
5690
5690
5690
5690
5694
5694
5695
5695
5697
5697
5698
5698
5699
5699
5705
5705
5706
5706
5706
5706
5706
5706
5706
5706
5708
5708
5708
5708
5709
5709
5714
5714
5716
5716
5716
5716
5716
5716
5718
5718
5718
5718
5722
5722
5722
5722
5725
5725
5728
5728
5729
5729
5729
5729
5730
5730
5730
5730
5730
5730
5730
5730
5731
5731
5732
5732
5732
5732
5732
5732
5733
5733
5733
5733
5733
5733
5736
5736
5737
5737
5737
5737
5737
5737
5737
5737
5738
5738
5738
5738
5738
5738
5744
5744
5744
5744
5745
5745
5745
5745
5745
5745
5748
5748
5748
5748
5751
5751
5752
5752
5755
5755
5755
5755
5757
5757
5757
5757
5757
5757
5757
5757
5757
5757
5758
5758
5759
5759
5761
5761
5761
5761
5764
5764
5765
5765
5765
5765
5766
5766
5766
5766
5766
5766
5769
5769
5775
5775
5777
5777
5778
5778
5779
5779
5779
5779
5780
5780
5781
5781
5784
5784
5785
5785
5787
5787
5788
5788
5788
5788
5789
5789
5789
5789
5790
5790
5792
5792
5793
5793
5794
5794
5794
5794
5796
5796
5796
5796
5796
5796
5797
5797
5797
5797
5797
5797
5798
5798
5799
5799
5799
5799
5799
5799
5802
5802
5804
5804
5804
5804
5805
5805
5806
5806
5806
5806
5807
5807
5807
5807
5809
5809
5810
5810
5811
5811
5814
5814
5815
5815
5817
5817
5817
5817
5818
5818
5818
5818
5818
5818
5820
5820
5821
5821
5822
5822
5822
5822
5823
5823
5823
5823
5825
5825
5827
5827
5827
5827
5828
5828
5829
5829
5829
5829
5830
5830
5831
5831
5831
5831
5833
5833
5834
5834
5838
5838
5838
5838
5839
5839
5844
5844
5847
5847
5848
5848
5848
5848
5850
5850
5852
5852
5855
5855
5856
5856
5859
5859
5859
5859
5859
5859
5860
5860
5861
5861
5861
5861
5863
5863
5864
5864
5865
5865
5866
5866
5867
5867
5867
5867
5867
5867
5868
5868
5868
5868
5869
5869
5869
5869
5873
5873
5874
5874
5875
5875
5878
5878
5881
5881
5882
5882
5883
5883
5884
5884
5884
5884
5886
5886
5887
5887
5888
5888
5888
5888
5889
5889
5891
5891
5892
5892
5892
5892
5893
5893
5893
5893
5893
5893
5894
5894
5894
5894
5894
5894
5895
5895
5895
5895
5897
5897
5900
5900
5901
5901
5902
5902
5904
5904
5904
5904
5906
5906
5906
5906
5908
5908
5908
5908
5910
5910
5911
5911
5913
5913
5913
5913
5918
5918
5918
5918
5922
5922
5922
5922
5922
5922
5923
5923
5925
5925
5927
5927
5928
5928
5928
5928
5928
5928
5928
5928
5929
5929
5929
5929
5931
5931
5932
5932
5933
5933
5933
5933
5937
5937
5937
5937
5937
5937
5939
5939
5939
5939
5940
5940
5940
5940
5944
5944
5944
5944
5946
5946
5947
5947
5947
5947
5948
5948
5949
5949
5949
5949
5949
5949
5950
5950
5950
5950
5950
5950
5950
5950
5953
5953
5953
5953
5954
5954
5954
5954
5955
5955
5960
5960
5960
5960
5962
5962
5962
5962
5964
5964
5965
5965
5967
5967
5967
5967
5969
5969
5970
5970
5975
5975
5976
5976
5978
5978
5978
5978
5979
5979
5979
5979
5980
5980
5980
5980
5981
5981
5982
5982
5982
5982
5986
5986
5986
5986
5988
5988
5991
5991
5991
5991
5992
5992
5992
5992
5993
5993
5993
5993
5993
5993
5995
5995
5996
5996
5997
5997
5998
5998
5998
5998
5999
5999
5999
5999
6002
6002
6006
6006
6006
6006
6008
6008
6009
6009
6009
6009
6010
6010
6012
6012
6013
6013
6013
6013
6019
6019
6021
6021
6021
6021
6022
6022
6022
6022
6024
6024
6024
6024
6025
6025
6025
6025
6027
6027
6027
6027
6027
6027
6027
6027
6028
6028
6028
6028
6032
6032
6033
6033
6033
6033
6034
6034
6038
6038
6040
6040
6041
6041
6043
6043
6044
6044
6047
6047
6048
6048
6048
6048
6049
6049
6051
6051
6053
6053
6054
6054
6055
6055
6056
6056
6056
6056
6057
6057
6057
6057
6057
6057
6058
6058
6059
6059
6060
6060
6060
6060
6063
6063
6063
6063
6064
6064
6064
6064
6064
6064
6067
6067
6067
6067
6068
6068
6069
6069
6070
6070
6071
6071
6071
6071
6072
6072
6072
6072
6073
6073
6074
6074
6077
6077
6078
6078
6080
6080
6080
6080
6080
6080
6083
6083
6083
6083
6083
6083
6083
6083
6086
6086
6087
6087
6087
6087
6088
6088
6089
6089
6090
6090
6092
6092
6092
6092
6095
6095
6096
6096
6096
6096
6098
6098
6100
6100
6100
6100
6100
6100
6102
6102
6102
6102
6103
6103
6107
6107
6107
6107
6111
6111
6112
6112
6112
6112
6114
6114
6117
6117
6118
6118
6119
6119
6119
6119
6121
6121
6122
6122
6125
6125
6127
6127
6130
6130
6135
6135
6135
6135
6135
6135
6137
6137
6138
6138
6138
6138
6139
6139
6140
6140
6141
6141
6141
6141
6141
6141
6143
6143
6145
6145
6145
6145
6145
6145
6145
6145
6146
6146
6150
6150
6150
6150
6151
6151
6151
6151
6152
6152
6153
6153
6153
6153
6155
6155
6155
6155
6156
6156
6157
6157
6157
6157
6158
6158
6159
6159
6162
6162
6163
6163
6164
6164
6164
6164
6165
6165
6165
6165
6168
6168
6170
6170
6171
6171
6172
6172
6172
6172
6174
6174
6174
6174
6176
6176
6178
6178
6180
6180
6182
6182
6182
6182
6183
6183
6183
6183
6184
6184
6186
6186
6187
6187
6187
6187
6188
6188
6189
6189
6189
6189
6189
6189
6193
6193
6194
6194
6196
6196
6198
6198
6201
6201
6202
6202
6202
6202
6203
6203
6203
6203
6204
6204
6204
6204
6205
6205
6207
6207
6207
6207
6210
6210
6211
6211
6211
6211
6213
6213
6216
6216
6218
6218
6219
6219
6220
6220
6220
6220
6222
6222
6223
6223
6223
6223
6226
6226
6227
6227
6227
6227
6228
6228
6228
6228
6230
6230
6230
6230
6232
6232
6233
6233
6233
6233
6234
6234
6236
6236
6237
6237
6238
6238
6238
6238
6241
6241
6243
6243
6244
6244
6245
6245
6248
6248
6248
6248
6248
6248
6249
6249
6250
6250
6253
6253
6254
6254
6256
6256
6256
6256
6259
6259
6263
6263
6266
6266
6266
6266
6267
6267
6267
6267
6267
6267
6268
6268
6268
6268
6269
6269
6271
6271
6271
6271
6273
6273
6275
6275
6276
6276
6277
6277
6278
6278
6278
6278
6279
6279
6280
6280
6282
6282
6282
6282
6283
6283
6284
6284
6284
6284
6285
6285
6288
6288
6288
6288
6290
6290
6290
6290
6291
6291
6291
6291
6291
6291
6295
6295
6296
6296
6300
6300
6301
6301
6301
6301
6303
6303
6303
6303
6304
6304
6306
6306
6308
6308
6309
6309
6311
6311
6312
6312
6313
6313
6313
6313
6313
6313
6315
6315
6316
6316
6318
6318
6321
6321
6321
6321
6322
6322
6323
6323
6324
6324
6324
6324
6326
6326
6328
6328
6330
6330
6330
6330
6333
6333
6335
6335
6336
6336
6336
6336
6337
6337
6337
6337
6338
6338
6340
6340
6340
6340
6342
6342
6342
6342
6343
6343
6344
6344
6346
6346
6347
6347
6350
6350
6352
6352
6352
6352
6352
6352
6353
6353
6354
6354
6355
6355
6356
6356
6356
6356
6356
6356
6361
6361
6361
6361
6362
6362
6363
6363
6364
6364
6364
6364
6364
6364
6366
6366
6370
6370
6371
6371
6371
6371
6372
6372
6374
6374
6375
6375
6377
6377
6377
6377
6378
6378
6379
6379
6379
6379
6379
6379
6380
6380
6381
6381
6382
6382
6382
6382
6382
6382
6383
6383
6383
6383
6383
6383
6384
6384
6385
6385
6385
6385
6385
6385
6387
6387
6387
6387
6387
6387
6388
6388
6388
6388
6389
6389
6390
6390
6390
6390
6392
6392
6392
6392
6394
6394
6396
6396
6396
6396
6397
6397
6398
6398
6399
6399
6400
6400
6400
6400
6402
6402
6402
6402
6404
6404
6404
6404
6404
6404
6405
6405
6407
6407
6407
6407
6408
6408
6409
6409
6411
6411
6412
6412
6412
6412
6414
6414
6415
6415
6417
6417
6418
6418
6419
6419
6420
6420
6421
6421
6422
6422
6423
6423
6423
6423
6423
6423
6424
6424
6428
6428
6429
6429
6429
6429
6431
6431
6431
6431
6431
6431
6432
6432
6435
6435
6435
6435
6436
6436
6437
6437
6437
6437
6440
6440
6442
6442
6443
6443
6445
6445
6448
6448
6449
6449
6450
6450
6452
6452
6452
6452
6454
6454
6455
6455
6455
6455
6456
6456
6457
6457
6457
6457
6457
6457
6458
6458
6458
6458
6460
6460
6460
6460
6460
6460
6461
6461
6462
6462
6464
6464
6466
6466
6466
6466
6467
6467
6471
6471
6478
6478
6478
6478
6478
6478
6479
6479
6479
6479
6480
6480
6480
6480
6481
6481
6481
6481
6482
6482
6483
6483
6483
6483
6487
6487
6490
6490
6492
6492
6492
6492
6492
6492
6493
6493
6493
6493
6494
6494
6494
6494
6495
6495
6495
6495
6496
6496
6496
6496
6497
6497
6498
6498
6498
6498
6499
6499
6500
6500
6502
6502
6503
6503
6503
6503
6504
6504
6506
6506
6506
6506
6508
6508
6509
6509
6509
6509
6511
6511
6511
6511
6511
6511
6511
6511
6511
6511
6513
6513
6515
6515
6515
6515
6517
6517
6518
6518
6523
6523
6524
6524
6524
6524
6526
6526
6526
6526
6526
6526
6527
6527
6527
6527
6531
6531
6534
6534
6537
6537
6538
6538
6540
6540
6542
6542
6544
6544
6544
6544
6545
6545
6545
6545
6549
6549
6550
6550
6551
6551
6551
6551
6552
6552
6553
6553
6554
6554
6557
6557
6558
6558
6558
6558
6558
6558
6559
6559
6560
6560
6560
6560
6562
6562
6563
6563
6564
6564
6565
6565
6569
6569
6569
6569
6569
6569
6570
6570
6570
6570
6571
6571
6571
6571
6572
6572
6572
6572
6572
6572
6573
6573
6574
6574
6579
6579
6583
6583
6583
6583
6584
6584
6585
6585
6586
6586
6587
6587
6590
6590
6591
6591
6591
6591
6594
6594
6595
6595
6595
6595
6596
6596
6597
6597
6597
6597
6599
6599
6601
6601
6602
6602
6603
6603
6605
6605
6606
6606
6607
6607
6607
6607
6608
6608
6609
6609
6609
6609
6614
6614
6616
6616
6617
6617
6618
6618
6618
6618
6618
6618
6619
6619
6619
6619
6619
6619
6621
6621
6622
6622
6623
6623
6624
6624
6624
6624
6624
6624
6626
6626
6627
6627
6628
6628
6630
6630
6631
6631
6631
6631
6631
6631
6632
6632
6634
6634
6634
6634
6635
6635
6635
6635
6635
6635
6635
6635
6636
6636
6636
6636
6637
6637
6640
6640
6641
6641
6641
6641
6642
6642
6643
6643
6644
6644
6644
6644
6645
6645
6647
6647
6648
6648
6649
6649
6650
6650
6652
6652
6654
6654
6655
6655
6655
6655
6656
6656
6656
6656
6657
6657
6658
6658
6662
6662
6664
6664
6665
6665
6666
6666
6669
6669
6670
6670
6673
6673
6673
6673
6675
6675
6675
6675
6676
6676
6676
6676
6680
6680
6682
6682
6682
6682
6683
6683
6683
6683
6685
6685
6686
6686
6687
6687
6689
6689
6690
6690
6690
6690
6690
6690
6691
6691
6691
6691
6692
6692
6693
6693
6694
6694
6695
6695
6697
6697
6699
6699
6700
6700
6702
6702
6703
6703
6704
6704
6706
6706
6708
6708
6709
6709
6710
6710
6711
6711
6711
6711
6712
6712
6712
6712
6713
6713
6717
6717
6718
6718
6722
6722
6724
6724
6724
6724
6727
6727
6728
6728
6729
6729
6731
6731
6731
6731
6733
6733
6733
6733
6736
6736
6736
6736
6736
6736
6740
6740
6742
6742
6745
6745
6745
6745
6746
6746
6747
6747
6748
6748
6749
6749
6749
6749
6750
6750
6752
6752
6752
6752
6753
6753
6753
6753
6755
6755
6755
6755
6756
6756
6757
6757
6757
6757
6761
6761
6762
6762
6765
6765
6767
6767
6768
6768
6769
6769
6769
6769
6770
6770
6770
6770
6772
6772
6772
6772
6773
6773
6773
6773
6774
6774
6779
6779
6780
6780
6780
6780
6780
6780
6780
6780
6781
6781
6783
6783
6785
6785
6785
6785
6788
6788
6791
6791
6796
6796
6797
6797
6799
6799
6800
6800
6800
6800
6800
6800
6801
6801
6801
6801
6801
6801
6802
6802
6803
6803
6805
6805
6806
6806
6808
6808
6808
6808
6813
6813
6814
6814
6815
6815
6816
6816
6816
6816
6818
6818
6820
6820
6823
6823
6823
6823
6824
6824
6824
6824
6825
6825
6826
6826
6827
6827
6828
6828
6829
6829
6832
6832
6834
6834
6834
6834
6834
6834
6834
6834
6834
6834
6835
6835
6838
6838
6838
6838
6839
6839
6842
6842
6842
6842
6843
6843
6843
6843
6845
6845
6847
6847
6847
6847
6847
6847
6849
6849
6851
6851
6852
6852
6853
6853
6854
6854
6854
6854
6855
6855
6855
6855
6856
6856
6858
6858
6858
6858
6859
6859
6859
6859
6859
6859
6862
6862
6862
6862
6863
6863
6864
6864
6866
6866
6867
6867
6869
6869
6870
6870
6870
6870
6875
6875
6875
6875
6876
6876
6876
6876
6877
6877
6878
6878
6878
6878
6880
6880
6880
6880
6884
6884
6884
6884
6886
6886
6886
6886
6887
6887
6887
6887
6889
6889
6890
6890
6891
6891
6891
6891
6892
6892
6892
6892
6893
6893
6894
6894
6894
6894
6894
6894
6895
6895
6895
6895
6896
6896
6896
6896
6897
6897
6897
6897
6899
6899
6900
6900
6901
6901
6902
6902
6902
6902
6902
6902
6905
6905
6905
6905
6905
6905
6905
6905
6907
6907
6909
6909
6910
6910
6910
6910
6911
6911
6912
6912
6913
6913
6916
6916
6916
6916
6916
6916
6917
6917
6918
6918
6919
6919
6919
6919
6919
6919
6920
6920
6921
6921
6923
6923
6923
6923
6923
6923
6925
6925
6925
6925
6927
6927
6929
6929
6930
6930
6931
6931
6932
6932
6932
6932
6933
6933
6934
6934
6934
6934
6938
6938
6938
6938
6943
6943
6944
6944
6944
6944
6945
6945
6945
6945
6945
6945
6946
6946
6947
6947
6949
6949
6950
6950
6951
6951
6952
6952
6953
6953
6956
6956
6956
6956
6956
6956
6960
6960
6960
6960
6960
6960
6960
6960
6961
6961
6961
6961
6962
6962
6962
6962
6963
6963
6963
6963
6963
6963
6964
6964
6966
6966
6967
6967
6968
6968
6972
6972
6972
6972
6974
6974
6976
6976
6977
6977
6977
6977
6977
6977
6979
6979
6979
6979
6982
6982
6983
6983
6984
6984
6984
6984
6985
6985
6986
6986
6987
6987
6988
6988
6989
6989
6989
6989
6989
6989
6991
6991
6993
6993
6995
6995
6995
6995
6995
6995
6996
6996
6997
6997
6998
6998
6998
6998
6999
6999
6999
6999
6999
6999
7001
7001
7001
7001
7002
7002
7002
7002
7006
7006
7006
7006
7006
7006
7007
7007
7009
7009
7009
7009
7011
7011
7014
7014
7016
7016
7017
7017
7018
7018
7018
7018
7019
7019
7019
7019
7020
7020
7020
7020
7021
7021
7021
7021
7025
7025
7027
7027
7028
7028
7029
7029
7029
7029
7032
7032
7032
7032
7032
7032
7032
7032
7033
7033
7033
7033
7034
7034
7035
7035
7036
7036
7037
7037
7038
7038
7040
7040
7040
7040
7040
7040
7040
7040
7041
7041
7041
7041
7041
7041
7043
7043
7044
7044
7044
7044
7046
7046
7046
7046
7047
7047
7050
7050
7050
7050
7051
7051
7051
7051
7052
7052
7055
7055
7055
7055
7055
7055
7056
7056
7059
7059
7060
7060
7061
7061
7061
7061
7062
7062
7062
7062
7065
7065
7066
7066
7066
7066
7066
7066
7067
7067
7067
7067
7068
7068
7069
7069
7070
7070
7071
7071
7072
7072
7072
7072
7073
7073
7075
7075
7077
7077
7077
7077
7078
7078
7079
7079
7080
7080
7081
7081
7081
7081
7083
7083
7085
7085
7085
7085
7085
7085
7086
7086
7088
7088
7088
7088
7088
7088
7089
7089
7090
7090
7093
7093
7093
7093
7093
7093
7094
7094
7095
7095
7095
7095
7097
7097
7098
7098
7099
7099
7101
7101
7102
7102
7103
7103
7104
7104
7104
7104
7105
7105
7106
7106
7107
7107
7109
7109
7109
7109
7110
7110
7110
7110
7112
7112
7113
7113
7113
7113
7114
7114
7114
7114
7115
7115
7116
7116
7117
7117
7118
7118
7118
7118
7121
7121
7121
7121
7122
7122
7123
7123
7124
7124
7124
7124
7124
7124
7125
7125
7127
7127
7127
7127
7128
7128
7129
7129
7130
7130
7130
7130
7135
7135
7135
7135
7136
7136
7137
7137
7137
7137
7139
7139
7140
7140
7140
7140
7141
7141
7141
7141
7142
7142
7142
7142
7144
7144
7145
7145
7146
7146
7146
7146
7151
7151
7151
7151
7152
7152
7153
7153
7154
7154
7155
7155
7156
7156
7156
7156
7157
7157
7158
7158
7161
7161
7161
7161
7162
7162
7162
7162
7163
7163
7163
7163
7164
7164
7164
7164
7167
7167
7168
7168
7168
7168
7169
7169
7170
7170
7170
7170
7172
7172
7173
7173
7175
7175
7175
7175
7178
7178
7178
7178
7180
7180
7180
7180
7180
7180
7181
7181
7182
7182
7182
7182
7183
7183
7183
7183
7185
7185
7185
7185
7185
7185
7186
7186
7188
7188
7188
7188
7188
7188
7190
7190
7191
7191
7192
7192
7193
7193
7194
7194
7196
7196
7197
7197
7197
7197
7197
7197
7198
7198
7200
7200
7202
7202
7203
7203
7204
7204
7205
7205
7205
7205
7205
7205
7205
7205
7208
7208
7208
7208
7209
7209
7210
7210
7212
7212
7220
7220
7220
7220
7220
7220
7220
7220
7221
7221
7222
7222
7225
7225
7226
7226
7226
7226
7228
7228
7230
7230
7230
7230
7231
7231
7232
7232
7233
7233
7234
7234
7234
7234
7235
7235
7237
7237
7240
7240
7241
7241
7242
7242
7244
7244
7245
7245
7246
7246
7247
7247
7248
7248
7248
7248
7249
7249
7249
7249
7249
7249
7249
7249
7250
7250
7251
7251
7253
7253
7254
7254
7255
7255
7255
7255
7256
7256
7256
7256
7256
7256
7256
7256
7258
7258
7258
7258
7258
7258
7259
7259
7260
7260
7263
7263
7264
7264
7265
7265
7266
7266
7267
7267
7267
7267
7267
7267
7268
7268
7268
7268
7269
7269
7269
7269
7269
7269
7273
7273
7274
7274
7275
7275
7275
7275
7276
7276
7277
7277
7278
7278
7278
7278
7280
7280
7281
7281
7281
7281
7283
7283
7284
7284
7284
7284
7284
7284
7285
7285
7285
7285
7286
7286
7289
7289
7289
7289
7290
7290
7290
7290
7291
7291
7293
7293
7293
7293
7294
7294
7295
7295
7296
7296
7299
7299
7302
7302
7302
7302
7302
7302
7303
7303
7304
7304
7305
7305
7305
7305
7306
7306
7306
7306
7307
7307
7307
7307
7308
7308
7310
7310
7311
7311
7311
7311
7311
7311
7313
7313
7313
7313
7314
7314
7315
7315
7317
7317
7317
7317
7318
7318
7319
7319
7319
7319
7320
7320
7321
7321
7323
7323
7323
7323
7323
7323
7326
7326
7327
7327
7327
7327
7328
7328
7329
7329
7331
7331
7333
7333
7334
7334
7335
7335
7336
7336
7338
7338
7340
7340
7340
7340
7345
7345
7346
7346
7346
7346
7346
7346
7347
7347
7347
7347
7350
7350
7350
7350
7350
7350
7350
7350
7353
7353
7353
7353
7353
7353
7354
7354
7355
7355
7355
7355
7356
7356
7357
7357
7357
7357
7359
7359
7360
7360
7363
7363
7364
7364
7364
7364
7365
7365
7365
7365
7367
7367
7367
7367
7367
7367
7367
7367
7368
7368
7368
7368
7368
7368
7369
7369
7371
7371
7371
7371
7372
7372
7375
7375
7377
7377
7377
7377
7377
7377
7378
7378
7378
7378
7378
7378
7378
7378
7380
7380
7386
7386
7387
7387
7388
7388
7388
7388
7391
7391
7391
7391
7392
7392
7393
7393
7398
7398
7399
7399
7399
7399
7400
7400
7400
7400
7400
7400
7401
7401
7401
7401
7402
7402
7403
7403
7403
7403
7403
7403
7403
7403
7405
7405
7410
7410
7411
7411
7411
7411
7412
7412
7415
7415
7417
7417
7418
7418
7419
7419
7419
7419
7419
7419
7422
7422
7423
7423
7424
7424
7426
7426
7427
7427
7427
7427
7427
7427
7428
7428
7429
7429
7430
7430
7430
7430
7432
7432
7433
7433
7437
7437
7438
7438
7440
7440
7442
7442
7442
7442
7442
7442
7444
7444
7445
7445
7445
7445
7446
7446
7447
7447
7449
7449
7450
7450
7451
7451
7452
7452
7452
7452
7453
7453
7454
7454
7457
7457
7458
7458
7458
7458
7459
7459
7461
7461
7461
7461
7461
7461
7462
7462
7463
7463
7464
7464
7465
7465
7466
7466
7469
7469
7469
7469
7471
7471
7472
7472
7474
7474
7474
7474
7474
7474
7475
7475
7475
7475
7478
7478
7479
7479
7481
7481
7481
7481
7485
7485
7489
7489
7491
7491
7492
7492
7492
7492
7494
7494
7496
7496
7499
7499
7499
7499
7501
7501
7501
7501
7503
7503
7504
7504
7506
7506
7508
7508
7509
7509
7509
7509
7510
7510
7510
7510
7511
7511
7512
7512
7513
7513
7513
7513
7514
7514
7517
7517
7518
7518
7519
7519
7520
7520
7520
7520
7520
7520
7521
7521
7522
7522
7525
7525
7525
7525
7526
7526
7529
7529
7531
7531
7531
7531
7532
7532
7532
7532
7533
7533
7534
7534
7536
7536
7537
7537
7537
7537
7538
7538
7538
7538
7538
7538
7540
7540
7541
7541
7543
7543
7545
7545
7550
7550
7550
7550
7553
7553
7553
7553
7553
7553
7555
7555
7556
7556
7557
7557
7558
7558
7559
7559
7560
7560
7560
7560
7562
7562
7564
7564
7566
7566
7567
7567
7572
7572
7573
7573
7574
7574
7574
7574
7574
7574
7579
7579
7580
7580
7582
7582
7584
7584
7585
7585
7586
7586
7587
7587
7588
7588
7589
7589
7589
7589
7590
7590
7591
7591
7591
7591
7592
7592
7594
7594
7594
7594
7595
7595
7597
7597
7597
7597
7598
7598
7598
7598
7599
7599
7600
7600
7601
7601
7601
7601
7605
7605
7607
7607
7607
7607
7608
7608
7610
7610
7610
7610
7610
7610
7612
7612
7612
7612
7612
7612
7613
7613
7613
7613
7613
7613
7614
7614
7616
7616
7616
7616
7616
7616
7617
7617
7618
7618
7618
7618
7619
7619
7619
7619
7621
7621
7621
7621
7622
7622
7622
7622
7623
7623
7623
7623
7623
7623
7625
7625
7626
7626
7626
7626
7627
7627
7627
7627
7628
7628
7628
7628
7628
7628
7629
7629
7630
7630
7631
7631
7633
7633
7634
7634
7635
7635
7636
7636
7636
7636
7636
7636
7638
7638
7639
7639
7640
7640
7641
7641
7643
7643
7643
7643
7646
7646
7647
7647
7648
7648
7650
7650
7651
7651
7651
7651
7652
7652
7655
7655
7655
7655
7656
7656
7657
7657
7658
7658
7660
7660
7661
7661
7662
7662
7663
7663
7663
7663
7666
7666
7667
7667
7669
7669
7670
7670
7671
7671
7673
7673
7678
7678
7678
7678
7681
7681
7682
7682
7683
7683
7685
7685
7686
7686
7687
7687
7688
7688
7689
7689
7691
7691
7691
7691
7692
7692
7693
7693
7696
7696
7698
7698
7699
7699
7699
7699
7701
7701
7701
7701
7702
7702
7702
7702
7703
7703
7704
7704
7704
7704
7704
7704
7704
7704
7705
7705
7705
7705
7705
7705
7706
7706
7708
7708
7710
7710
7711
7711
7711
7711
7711
7711
7712
7712
7712
7712
7712
7712
7712
7712
7714
7714
7717
7717
7717
7717
7718
7718
7718
7718
7719
7719
7720
7720
7723
7723
7723
7723
7725
7725
7725
7725
7725
7725
7727
7727
7728
7728
7728
7728
7732
7732
7734
7734
7734
7734
7736
7736
7739
7739
7739
7739
7739
7739
7739
7739
7740
7740
7745
7745
7745
7745
7745
7745
7745
7745
7745
7745
7746
7746
7747
7747
7747
7747
7748
7748
7748
7748
7749
7749
7751
7751
7751
7751
7751
7751
7751
7751
7752
7752
7752
7752
7753
7753
7753
7753
7755
7755
7755
7755
7757
7757
7757
7757
7758
7758
7758
7758
7758
7758
7759
7759
7759
7759
7759
7759
7760
7760
7761
7761
7761
7761
7763
7763
7764
7764
7764
7764
7766
7766
7768
7768
7771
7771
7771
7771
7772
7772
7773
7773
7774
7774
7774
7774
7775
7775
7776
7776
7778
7778
7780
7780
7781
7781
7783
7783
7785
7785
7785
7785
7785
7785
7786
7786
7790
7790
7792
7792
7793
7793
7794
7794
7794
7794
7794
7794
7798
7798
7798
7798
7800
7800
7802
7802
7803
7803
7803
7803
7804
7804
7805
7805
7805
7805
7806
7806
7807
7807
7808
7808
7809
7809
7809
7809
7810
7810
7810
7810
7810
7810
7811
7811
7811
7811
7811
7811
7812
7812
7813
7813
7814
7814
7814
7814
7816
7816
7816
7816
7817
7817
7817
7817
7818
7818
7818
7818
7819
7819
7819
7819
7821
7821
7822
7822
7822
7822
7824
7824
7825
7825
7825
7825
7830
7830
7832
7832
7832
7832
7833
7833
7833
7833
7833
7833
7834
7834
7836
7836
7838
7838
7838
7838
7838
7838
7839
7839
7840
7840
7840
7840
7843
7843
7844
7844
7845
7845
7845
7845
7846
7846
7848
7848
7850
7850
7851
7851
7852
7852
7852
7852
7857
7857
7857
7857
7858
7858
7859
7859
7860
7860
7861
7861
7861
7861
7861
7861
7862
7862
7863
7863
7864
7864
7864
7864
7866
7866
7866
7866
7868
7868
7868
7868
7869
7869
7870
7870
7873
7873
7873
7873
7874
7874
7875
7875
7876
7876
7877
7877
7878
7878
7878
7878
7879
7879
7880
7880
7880
7880
7881
7881
7882
7882
7883
7883
7883
7883
7883
7883
7883
7883
7884
7884
7885
7885
7886
7886
7886
7886
7886
7886
7888
7888
7889
7889
7889
7889
7889
7889
7889
7889
7890
7890
7890
7890
7893
7893
7893
7893
7894
7894
7895
7895
7896
7896
7896
7896
7897
7897
7897
7897
7897
7897
7897
7897
7898
7898
7899
7899
7899
7899
7900
7900
7901
7901
7901
7901
7902
7902
7903
7903
7903
7903
7904
7904
7905
7905
7905
7905
7907
7907
7908
7908
7910
7910
7911
7911
7912
7912
7912
7912
7913
7913
7913
7913
7914
7914
7916
7916
7916
7916
7916
7916
7917
7917
7918
7918
7919
7919
7919
7919
7921
7921
7921
7921
7921
7921
7923
7923
7925
7925
7926
7926
7926
7926
7926
7926
7926
7926
7927
7927
7929
7929
7930
7930
7930
7930
7931
7931
7931
7931
7932
7932
7932
7932
7933
7933
7934
7934
7937
7937
7938
7938
7940
7940
7941
7941
7941
7941
7941
7941
7945
7945
7947
7947
7947
7947
7948
7948
7949
7949
7953
7953
7954
7954
7954
7954
7955
7955
7956
7956
7958
7958
7961
7961
7962
7962
7963
7963
7968
7968
7968
7968
7971
7971
7972
7972
7972
7972
7975
7975
7975
7975
7975
7975
7975
7975
7975
7975
7976
7976
7977
7977
7978
7978
7979
7979
7979
7979
7980
7980
7980
7980
7983
7983
7985
7985
7985
7985
7985
7985
7986
7986
7986
7986
7987
7987
7987
7987
7987
7987
7987
7987
7989
7989
7991
7991
7992
7992
7993
7993
7994
7994
7995
7995
7995
7995
7997
7997
7998
7998
7998
7998
7999
7999
8000
8000
8001
8001
8001
8001
8003
8003
8003
8003
8005
8005
8006
8006
8007
8007
8011
8011
8015
8015
8015
8015
8015
8015
8017
8017
8017
8017
8018
8018
8020
8020
8021
8021
8021
8021
8021
8021
8022
8022
8022
8022
8023
8023
8025
8025
8025
8025
8025
8025
8026
8026
8027
8027
8027
8027
8029
8029
8029
8029
8029
8029
8031
8031
8036
8036
8037
8037
8037
8037
8040
8040
8040
8040
8040
8040
8041
8041
8043
8043
8044
8044
8045
8045
8047
8047
8047
8047
8048
8048
8048
8048
8049
8049
8051
8051
8051
8051
8056
8056
8057
8057
8058
8058
8059
8059
8059
8059
8059
8059
8060
8060
8060
8060
8060
8060
8062
8062
8062
8062
8063
8063
8063
8063
8063
8063
8063
8063
8063
8063
8065
8065
8065
8065
8066
8066
8066
8066
8067
8067
8067
8067
8068
8068
8068
8068
8071
8071
8072
8072
8072
8072
8074
8074
8074
8074
8076
8076
8077
8077
8078
8078
8082
8082
8083
8083
8083
8083
8086
8086
8088
8088
8088
8088
8089
8089
8090
8090
8090
8090
8092
8092
8096
8096
8096
8096
8097
8097
8100
8100
8100
8100
8102
8102
8103
8103
8107
8107
8107
8107
8107
8107
8108
8108
8109
8109
8109
8109
8111
8111
8112
8112
8113
8113
8113
8113
8116
8116
8117
8117
8119
8119
8119
8119
8119
8119
8120
8120
8120
8120
8121
8121
8121
8121
8121
8121
8125
8125
8125
8125
8125
8125
8128
8128
8129
8129
8129
8129
8129
8129
8130
8130
8131
8131
8131
8131
8132
8132
8132
8132
8133
8133
8133
8133
8138
8138
8138
8138
8139
8139
8139
8139
8140
8140
8141
8141
8141
8141
8142
8142
8142
8142
8143
8143
8143
8143
8144
8144
8144
8144
8145
8145
8146
8146
8147
8147
8147
8147
8148
8148
8150
8150
8153
8153
8158
8158
8159
8159
8159
8159
8161
8161
8162
8162
8162
8162
8163
8163
8164
8164
8165
8165
8165
8165
8165
8165
8165
8165
8168
8168
8169
8169
8169
8169
8169
8169
8170
8170
8173
8173
8175
8175
8176
8176
8176
8176
8176
8176
8177
8177
8178
8178
8179
8179
8182
8182
8182
8182
8183
8183
8185
8185
8188
8188
8189
8189
8190
8190
8191
8191
8192
8192
8193
8193
8193
8193
8195
8195
8198
8198
8198
8198
8198
8198
8199
8199
8199
8199
8200
8200
8201
8201
8202
8202
8203
8203
8203
8203
8204
8204
8204
8204
8204
8204
8204
8204
8204
8204
8205
8205
8206
8206
8207
8207
8208
8208
8209
8209
8211
8211
8211
8211
8213
8213
8214
8214
8214
8214
8214
8214
8216
8216
8218
8218
8219
8219
8221
8221
8221
8221
8222
8222
8222
8222
8223
8223
8225
8225
8228
8228
8228
8228
8231
8231
8233
8233
8234
8234
8234
8234
8234
8234
8236
8236
8236
8236
8239
8239
8240
8240
8240
8240
8241
8241
8243
8243
8243
8243
8245
8245
8245
8245
8245
8245
8246
8246
8246
8246
8248
8248
8252
8252
8252
8252
8253
8253
8255
8255
8255
8255
8256
8256
8256
8256
8257
8257
8257
8257
8258
8258
8258
8258
8259
8259
8259
8259
8260
8260
8260
8260
8260
8260
8262
8262
8262
8262
8264
8264
8265
8265
8265
8265
8268
8268
8268
8268
8269
8269
8269
8269
8272
8272
8272
8272
8272
8272
8273
8273
8275
8275
8276
8276
8281
8281
8282
8282
8283
8283
8284
8284
8284
8284
8285
8285
8285
8285
8285
8285
8285
8285
8287
8287
8287
8287
8287
8287
8288
8288
8288
8288
8288
8288
8289
8289
8289
8289
8290
8290
8290
8290
8291
8291
8291
8291
8292
8292
8292
8292
8292
8292
8293
8293
8293
8293
8294
8294
8294
8294
8294
8294
8295
8295
8298
8298
8299
8299
8299
8299
8301
8301
8302
8302
8303
8303
8303
8303
8305
8305
8305
8305
8305
8305
8306
8306
8306
8306
8307
8307
8308
8308
8308
8308
8308
8308
8309
8309
8310
8310
8311
8311
8311
8311
8312
8312
8312
8312
8313
8313
8313
8313
8315
8315
8316
8316
8316
8316
8322
8322
8323
8323
8324
8324
8324
8324
8325
8325
8325
8325
8325
8325
8327
8327
8328
8328
8329
8329
8330
8330
8331
8331
8334
8334
8335
8335
8336
8336
8336
8336
8337
8337
8339
8339
8342
8342
8344
8344
8344
8344
8345
8345
8347
8347
8347
8347
8347
8347
8348
8348
8349
8349
8349
8349
8351
8351
8351
8351
8352
8352
8352
8352
8352
8352
8352
8352
8353
8353
8354
8354
8355
8355
8359
8359
8360
8360
8361
8361
8362
8362
8362
8362
8364
8364
8365
8365
8366
8366
8366
8366
8367
8367
8367
8367
8369
8369
8371
8371
8371
8371
8372
8372
8372
8372
8373
8373
8374
8374
8375
8375
8378
8378
8379
8379
8381
8381
8382
8382
8385
8385
8389
8389
8390
8390
8391
8391
8392
8392
8393
8393
8395
8395
8395
8395
8395
8395
8396
8396
8396
8396
8396
8396
8397
8397
8398
8398
8400
8400
8402
8402
8402
8402
8402
8402
8403
8403
8403
8403
8409
8409
8409
8409
8410
8410
8410
8410
8411
8411
8412
8412
8412
8412
8413
8413
8413
8413
8414
8414
8415
8415
8418
8418
8418
8418
8419
8419
8420
8420
8421
8421
8421
8421
8427
8427
8429
8429
8429
8429
8432
8432
8433
8433
8434
8434
8435
8435
8435
8435
8436
8436
8436
8436
8437
8437
8438
8438
8438
8438
8439
8439
8441
8441
8443
8443
8443
8443
8444
8444
8444
8444
8445
8445
8447
8447
8448
8448
8449
8449
8449
8449
8449
8449
8449
8449
8450
8450
8450
8450
8451
8451
8452
8452
8453
8453
8454
8454
8454
8454
8455
8455
8455
8455
8457
8457
8459
8459
8459
8459
8463
8463
8464
8464
8464
8464
8464
8464
8465
8465
8465
8465
8465
8465
8466
8466
8467
8467
8469
8469
8470
8470
8470
8470
8471
8471
8471
8471
8472
8472
8472
8472
8473
8473
8474
8474
8475
8475
8476
8476
8478
8478
8478
8478
8480
8480
8480
8480
8482
8482
8482
8482
8482
8482
8483
8483
8483
8483
8483
8483
8484
8484
8484
8484
8485
8485
8485
8485
8485
8485
8486
8486
8487
8487
8487
8487
8488
8488
8490
8490
8491
8491
8493
8493
8494
8494
8495
8495
8495
8495
8498
8498
8499
8499
8500
8500
8500
8500
8501
8501
8502
8502
8503
8503
8504
8504
8504
8504
8504
8504
8505
8505
8507
8507
8507
8507
8507
8507
8508
8508
8510
8510
8512
8512
8513
8513
8513
8513
8514
8514
8514
8514
8516
8516
8518
8518
8518
8518
8519
8519
8522
8522
8523
8523
8524
8524
8524
8524
8525
8525
8526
8526
8527
8527
8527
8527
8527
8527
8528
8528
8528
8528
8528
8528
8528
8528
8529
8529
8530
8530
8530
8530
8530
8530
8532
8532
8532
8532
8533
8533
8533
8533
8536
8536
8536
8536
8537
8537
8537
8537
8537
8537
8538
8538
8541
8541
8542
8542
8543
8543
8545
8545
8546
8546
8548
8548
8549
8549
8549
8549
8549
8549
8550
8550
8553
8553
8553
8553
8555
8555
8556
8556
8557
8557
8557
8557
8559
8559
8561
8561
8561
8561
8561
8561
8561
8561
8564
8564
8565
8565
8566
8566
8567
8567
8568
8568
8570
8570
8572
8572
8573
8573
8573
8573
8573
8573
8574
8574
8576
8576
8576
8576
8577
8577
8583
8583
8584
8584
8585
8585
8586
8586
8587
8587
8587
8587
8587
8587
8588
8588
8589
8589
8590
8590
8593
8593
8598
8598
8599
8599
8600
8600
8600
8600
8601
8601
8603
8603
8603
8603
8604
8604
8604
8604
8606
8606
8606
8606
8607
8607
8608
8608
8609
8609
8614
8614
8616
8616
8617
8617
8619
8619
8620
8620
8622
8622
8623
8623
8625
8625
8626
8626
8626
8626
8626
8626
8627
8627
8629
8629
8629
8629
8631
8631
8631
8631
8632
8632
8633
8633
8633
8633
8634
8634
8635
8635
8635
8635
8636
8636
8636
8636
8637
8637
8637
8637
8638
8638
8640
8640
8640
8640
8641
8641
8641
8641
8644
8644
8645
8645
8645
8645
8646
8646
8647
8647
8647
8647
8648
8648
8649
8649
8649
8649
8651
8651
8651
8651
8652
8652
8653
8653
8656
8656
8657
8657
8657
8657
8658
8658
8658
8658
8658
8658
8661
8661
8662
8662
8662
8662
8663
8663
8665
8665
8668
8668
8669
8669
8670
8670
8671
8671
8672
8672
8672
8672
8672
8672
8672
8672
8674
8674
8674
8674
8675
8675
8675
8675
8676
8676
8677
8677
8680
8680
8680
8680
8680
8680
8681
8681
8683
8683
8687
8687
8689
8689
8691
8691
8694
8694
8696
8696
8697
8697
8697
8697
8698
8698
8699
8699
8700
8700
8704
8704
8706
8706
8706
8706
8707
8707
8707
8707
8709
8709
8710
8710
8710
8710
8711
8711
8711
8711
8712
8712
8712
8712
8712
8712
8714
8714
8714
8714
8715
8715
8716
8716
8717
8717
8718
8718
8718
8718
8719
8719
8719
8719
8720
8720
8723
8723
8725
8725
8725
8725
8725
8725
8726
8726
8727
8727
8728
8728
8728
8728
8730
8730
8730
8730
8730
8730
8731
8731
8731
8731
8731
8731
8733
8733
8733
8733
8735
8735
8735
8735
8736
8736
8737
8737
8738
8738
8738
8738
8738
8738
8739
8739
8739
8739
8740
8740
8741
8741
8742
8742
8742
8742
8742
8742
8744
8744
8745
8745
8745
8745
8745
8745
8746
8746
8747
8747
8748
8748
8749
8749
8751
8751
8753
8753
8753
8753
8754
8754
8756
8756
8757
8757
8757
8757
8758
8758
8758
8758
8760
8760
8760
8760
8763
8763
8767
8767
8767
8767
8768
8768
8768
8768
8770
8770
8770
8770
8775
8775
8775
8775
8775
8775
8776
8776
8778
8778
8780
8780
8780
8780
8781
8781
8783
8783
8784
8784
8784
8784
8786
8786
8786
8786
8786
8786
8787
8787
8787
8787
8789
8789
8789
8789
8790
8790
8792
8792
8792
8792
8792
8792
8792
8792
8799
8799
8799
8799
8805
8805
8809
8809
8809
8809
8810
8810
8814
8814
8816
8816
8819
8819
8819
8819
8820
8820
8820
8820
8821
8821
8822
8822
8823
8823
8823
8823
8825
8825
8827
8827
8829
8829
8831
8831
8831
8831
8831
8831
8833
8833
8833
8833
8833
8833
8838
8838
8839
8839
8840
8840
8842
8842
8843
8843
8843
8843
8844
8844
8844
8844
8845
8845
8846
8846
8846
8846
8847
8847
8847
8847
8848
8848
8848
8848
8851
8851
8851
8851
8853
8853
8853
8853
8853
8853
8854
8854
8855
8855
8855
8855
8857
8857
8857
8857
8858
8858
8859
8859
8859
8859
8860
8860
8861
8861
8862
8862
8865
8865
8866
8866
8868
8868
8868
8868
8869
8869
8870
8870
8876
8876
8878
8878
8880
8880
8880
8880
8880
8880
8882
8882
8882
8882
8882
8882
8883
8883
8884
8884
8885
8885
8886
8886
8888
8888
8889
8889
8889
8889
8889
8889
8892
8892
8893
8893
8893
8893
8894
8894
8894
8894
8896
8896
8897
8897
8903
8903
8903
8903
8903
8903
8904
8904
8907
8907
8907
8907
8907
8907
8908
8908
8909
8909
8910
8910
8912
8912
8913
8913
8914
8914
8914
8914
8914
8914
8915
8915
8917
8917
8918
8918
8918
8918
8921
8921
8921
8921
8921
8921
8923
8923
8923
8923
8924
8924
8925
8925
8926
8926
8927
8927
8927
8927
8928
8928
8930
8930
8931
8931
8931
8931
8934
8934
8936
8936
8936
8936
8937
8937
8938
8938
8939
8939
8942
8942
8943
8943
8943
8943
8944
8944
8946
8946
8946
8946
8947
8947
8948
8948
8948
8948
8950
8950
8950
8950
8950
8950
8951
8951
8951
8951
8952
8952
8952
8952
8952
8952
8956
8956
8956
8956
8957
8957
8961
8961
8962
8962
8962
8962
8965
8965
8967
8967
8967
8967
8969
8969
8969
8969
8973
8973
8973
8973
8975
8975
8977
8977
8977
8977
8980
8980
8981
8981
8984
8984
8984
8984
8984
8984
8985
8985
8986
8986
8986
8986
8987
8987
8988
8988
8989
8989
8989
8989
8990
8990
8991
8991
8991
8991
8992
8992
8993
8993
8995
8995
8995
8995
8995
8995
8995
8995
8996
8996
8998
8998
8999
8999
8999
8999
8999
8999
9000
9000
9000
9000
9001
9001
9003
9003
9004
9004
9004
9004
9005
9005
9005
9005
9006
9006
9009
9009
9010
9010
9013
9013
9014
9014
9015
9015
9015
9015
9016
9016
9017
9017
9017
9017
9017
9017
9018
9018
9020
9020
9021
9021
9021
9021
9021
9021
9023
9023
9023
9023
9024
9024
9024
9024
9024
9024
9025
9025
9025
9025
9025
9025
9026
9026
9027
9027
9028
9028
9030
9030
9032
9032
9032
9032
9036
9036
9036
9036
9037
9037
9038
9038
9039
9039
9039
9039
9039
9039
9039
9039
9043
9043
9045
9045
9045
9045
9046
9046
9049
9049
9050
9050
9050
9050
9051
9051
9051
9051
9052
9052
9052
9052
9052
9052
9053
9053
9056
9056
9056
9056
9057
9057
9058
9058
9059
9059
9060
9060
9061
9061
9063
9063
9064
9064
9066
9066
9066
9066
9067
9067
9068
9068
9069
9069
9069
9069
9070
9070
9074
9074
9076
9076
9077
9077
9078
9078
9079
9079
9080
9080
9080
9080
9081
9081
9085
9085
9086
9086
9086
9086
9090
9090
9091
9091
9096
9096
9096
9096
9096
9096
9097
9097
9097
9097
9098
9098
9101
9101
9101
9101
9102
9102
9102
9102
9106
9106
9106
9106
9108
9108
9109
9109
9109
9109
9110
9110
9110
9110
9113
9113
9113
9113
9114
9114
9115
9115
9115
9115
9116
9116
9116
9116
9117
9117
9117
9117
9118
9118
9121
9121
9122
9122
9124
9124
9124
9124
9125
9125
9125
9125
9129
9129
9130
9130
9131
9131
9131
9131
9132
9132
9133
9133
9135
9135
9139
9139
9139
9139
9140
9140
9142
9142
9143
9143
9144
9144
9146
9146
9147
9147
9147
9147
9148
9148
9149
9149
9150
9150
9150
9150
9151
9151
9151
9151
9152
9152
9154
9154
9156
9156
9156
9156
9157
9157
9160
9160
9163
9163
9163
9163
9165
9165
9166
9166
9166
9166
9168
9168
9168
9168
9168
9168
9169
9169
9172
9172
9173
9173
9177
9177
9177
9177
9177
9177
9178
9178
9178
9178
9178
9178
9179
9179
9179
9179
9180
9180
9181
9181
9181
9181
9184
9184
9185
9185
9189
9189
9189
9189
9190
9190
9191
9191
9193
9193
9193
9193
9194
9194
9195
9195
9197
9197
9200
9200
9200
9200
9200
9200
9200
9200
9201
9201
9205
9205
9205
9205
9206
9206
9206
9206
9206
9206
9207
9207
9211
9211
9211
9211
9211
9211
9213
9213
9214
9214
9214
9214
9215
9215
9216
9216
9218
9218
9218
9218
9219
9219
9220
9220
9221
9221
9222
9222
9223
9223
9223
9223
9223
9223
9223
9223
9223
9223
9223
9223
9224
9224
9228
9228
9232
9232
9233
9233
9234
9234
9235
9235
9235
9235
9236
9236
9237
9237
9238
9238
9238
9238
9238
9238
9239
9239
9240
9240
9240
9240
9240
9240
9241
9241
9242
9242
9244
9244
9245
9245
9246
9246
9247
9247
9247
9247
9250
9250
9251
9251
9253
9253
9254
9254
9256
9256
9257
9257
9258
9258
9258
9258
9258
9258
9258
9258
9259
9259
9263
9263
9263
9263
9264
9264
9265
9265
9269
9269
9269
9269
9272
9272
9272
9272
9272
9272
9272
9272
9273
9273
9274
9274
9274
9274
9275
9275
9276
9276
9277
9277
9277
9277
9277
9277
9279
9279
9279
9279
9281
9281
9282
9282
9283
9283
9284
9284
9284
9284
9287
9287
9287
9287
9287
9287
9290
9290
9290
9290
9291
9291
9291
9291
9294
9294
9296
9296
9296
9296
9296
9296
9298
9298
9300
9300
9301
9301
9301
9301
9303
9303
9303
9303
9303
9303
9304
9304
9305
9305
9307
9307
9310
9310
9311
9311
9311
9311
9313
9313
9316
9316
9317
9317
9318
9318
9318
9318
9319
9319
9319
9319
9321
9321
9321
9321
9322
9322
9322
9322
9322
9322
9323
9323
9325
9325
9326
9326
9326
9326
9327
9327
9329
9329
9329
9329
9332
9332
9332
9332
9337
9337
9338
9338
9340
9340
9340
9340
9342
9342
9343
9343
9345
9345
9345
9345
9350
9350
9351
9351
9352
9352
9352
9352
9352
9352
9352
9352
9354
9354
9355
9355
9357
9357
9358
9358
9359
9359
9360
9360
9362
9362
9362
9362
9362
9362
9362
9362
9362
9362
9363
9363
9365
9365
9366
9366
9366
9366
9369
9369
9369
9369
9369
9369
9370
9370
9370
9370
9371
9371
9371
9371
9372
9372
9372
9372
9372
9372
9373
9373
9374
9374
9374
9374
9375
9375
9376
9376
9376
9376
9377
9377
9378
9378
9380
9380
9380
9380
9383
9383
9383
9383
9384
9384
9385
9385
9386
9386
9387
9387
9389
9389
9389
9389
9391
9391
9393
9393
9393
9393
9393
9393
9395
9395
9395
9395
9396
9396
9398
9398
9400
9400
9401
9401
9404
9404
9406
9406
9408
9408
9408
9408
9412
9412
9413
9413
9414
9414
9414
9414
9415
9415
9416
9416
9420
9420
9420
9420
9421
9421
9424
9424
9425
9425
9426
9426
9426
9426
9426
9426
9426
9426
9427
9427
9427
9427
9428
9428
9429
9429
9429
9429
9430
9430
9431
9431
9431
9431
9432
9432
9433
9433
9433
9433
9434
9434
9435
9435
9436
9436
9437
9437
9440
9440
9441
9441
9442
9442
9442
9442
9443
9443
9445
9445
9445
9445
9446
9446
9448
9448
9449
9449
9450
9450
9450
9450
9451
9451
9451
9451
9452
9452
9452
9452
9452
9452
9455
9455
9456
9456
9457
9457
9457
9457
9460
9460
9461
9461
9462
9462
9462
9462
9462
9462
9462
9462
9462
9462
9463
9463
9464
9464
9464
9464
9464
9464
9464
9464
9465
9465
9466
9466
9466
9466
9468
9468
9468
9468
9469
9469
9470
9470
9470
9470
9470
9470
9471
9471
9471
9471
9472
9472
9473
9473
9475
9475
9475
9475
9476
9476
9477
9477
9478
9478
9482
9482
9484
9484
9484
9484
9484
9484
9486
9486
9486
9486
9487
9487
9487
9487
9487
9487
9489
9489
9489
9489
9491
9491
9491
9491
9492
9492
9492
9492
9494
9494
9495
9495
9495
9495
9495
9495
9495
9495
9496
9496
9497
9497
9498
9498
9499
9499
9499
9499
9500
9500
9500
9500
9500
9500
9501
9501
9501
9501
9503
9503
9506
9506
9507
9507
9508
9508
9509
9509
9509
9509
9509
9509
9511
9511
9512
9512
9514
9514
9515
9515
9515
9515
9517
9517
9520
9520
9521
9521
9521
9521
9522
9522
9522
9522
9522
9522
9522
9522
9523
9523
9524
9524
9524
9524
9524
9524
9526
9526
9526
9526
9527
9527
9527
9527
9527
9527
9529
9529
9529
9529
9530
9530
9531
9531
9533
9533
9533
9533
9534
9534
9534
9534
9536
9536
9537
9537
9538
9538
9539
9539
9541
9541
9541
9541
9542
9542
9544
9544
9546
9546
9547
9547
9548
9548
9548
9548
9549
9549
9549
9549
9551
9551
9551
9551
9552
9552
9552
9552
9552
9552
9552
9552
9553
9553
9553
9553
9554
9554
9554
9554
9555
9555
9556
9556
9557
9557
9558
9558
9559
9559
9560
9560
9561
9561
9562
9562
9562
9562
9563
9563
9564
9564
9564
9564
9565
9565
9566
9566
9567
9567
9567
9567
9568
9568
9568
9568
9569
9569
9569
9569
9569
9569
9571
9571
9574
9574
9575
9575
9577
9577
9580
9580
9582
9582
9585
9585
9587
9587
9588
9588
9588
9588
9590
9590
9590
9590
9591
9591
9592
9592
9592
9592
9593
9593
9597
9597
9598
9598
9598
9598
9599
9599
9599
9599
9603
9603
9604
9604
9604
9604
9606
9606
9606
9606
9608
9608
9608
9608
9610
9610
9610
9610
9614
9614
9615
9615
9615
9615
9616
9616
9616
9616
9618
9618
9620
9620
9620
9620
9624
9624
9625
9625
9625
9625
9625
9625
9626
9626
9626
9626
9627
9627
9627
9627
9627
9627
9628
9628
9629
9629
9629
9629
9631
9631
9632
9632
9632
9632
9633
9633
9633
9633
9634
9634
9634
9634
9635
9635
9635
9635
9636
9636
9638
9638
9642
9642
9644
9644
9645
9645
9650
9650
9650
9650
9652
9652
9652
9652
9652
9652
9657
9657
9659
9659
9660
9660
9661
9661
9662
9662
9662
9662
9662
9662
9663
9663
9663
9663
9664
9664
9664
9664
9665
9665
9667
9667
9668
9668
9670
9670
9671
9671
9673
9673
9674
9674
9675
9675
9676
9676
9677
9677
9678
9678
9678
9678
9679
9679
9680
9680
9680
9680
9682
9682
9682
9682
9683
9683
9686
9686
9689
9689
9690
9690
9690
9690
9691
9691
9692
9692
9692
9692
9697
9697
9697
9697
9698
9698
9698
9698
9700
9700
9701
9701
9702
9702
9704
9704
9704
9704
9706
9706
9707
9707
9708
9708
9708
9708
9710
9710
9712
9712
9716
9716
9717
9717
9718
9718
9718
9718
9721
9721
9723
9723
9723
9723
9723
9723
9724
9724
9726
9726
9727
9727
9729
9729
9731
9731
9731
9731
9731
9731
9731
9731
9732
9732
9733
9733
9734
9734
9734
9734
9734
9734
9738
9738
9739
9739
9741
9741
9741
9741
9743
9743
9744
9744
9746
9746
9747
9747
9748
9748
9750
9750
9751
9751
9751
9751
9752
9752
9752
9752
9752
9752
9754
9754
9754
9754
9755
9755
9756
9756
9757
9757
9758
9758
9758
9758
9759
9759
9759
9759
9760
9760
9761
9761
9761
9761
9761
9761
9762
9762
9762
9762
9765
9765
9765
9765
9765
9765
9768
9768
9768
9768
9771
9771
9772
9772
9772
9772
9773
9773
9774
9774
9775
9775
9775
9775
9776
9776
9777
9777
9777
9777
9777
9777
9780
9780
9780
9780
9780
9780
9781
9781
9781
9781
9785
9785
9786
9786
9787
9787
9790
9790
9795
9795
9796
9796
9797
9797
9797
9797
9799
9799
9799
9799
9799
9799
9799
9799
9801
9801
9802
9802
9802
9802
9802
9802
9805
9805
9806
9806
9806
9806
9806
9806
9807
9807
9807
9807
9807
9807
9808
9808
9809
9809
9809
9809
9812
9812
9812
9812
9813
9813
9813
9813
9815
9815
9815
9815
9815
9815
9816
9816
9816
9816
9819
9819
9819
9819
9819
9819
9820
9820
9820
9820
9821
9821
9821
9821
9822
9822
9823
9823
9823
9823
9825
9825
9826
9826
9829
9829
9829
9829
9830
9830
9830
9830
9831
9831
9831
9831
9832
9832
9832
9832
9833
9833
9834
9834
9836
9836
9840
9840
9840
9840
9840
9840
9840
9840
9842
9842
9843
9843
9846
9846
9846
9846
9846
9846
9846
9846
9847
9847
9847
9847
9848
9848
9848
9848
9849
9849
9850
9850
9851
9851
9853
9853
9854
9854
9856
9856
9856
9856
9857
9857
9860
9860
9860
9860
9860
9860
9861
9861
9861
9861
9862
9862
9863
9863
9863
9863
9863
9863
9864
9864
9867
9867
9867
9867
9870
9870
9871
9871
9872
9872
9872
9872
9872
9872
9873
9873
9873
9873
9874
9874
9874
9874
9876
9876
9877
9877
9878
9878
9879
9879
9879
9879
9880
9880
9881
9881
9881
9881
9882
9882
9882
9882
9882
9882
9883
9883
9883
9883
9884
9884
9884
9884
9885
9885
9886
9886
9886
9886
9887
9887
9891
9891
9892
9892
9895
9895
9896
9896
9897
9897
9897
9897
9897
9897
9898
9898
9899
9899
9900
9900
9901
9901
9903
9903
9903
9903
9903
9903
9905
9905
9906
9906
9907
9907
9907
9907
9908
9908
9910
9910
9910
9910
9911
9911
9912
9912
9913
9913
9913
9913
9917
9917
9917
9917
9918
9918
9919
9919
9919
9919
9921
9921
9921
9921
9922
9922
9922
9922
9923
9923
9924
9924
9924
9924
9924
9924
9927
9927
9929
9929
9930
9930
9931
9931
9934
9934
9935
9935
9935
9935
9936
9936
9936
9936
9937
9937
9938
9938
9938
9938
9938
9938
9938
9938
9939
9939
9941
9941
9942
9942
9943
9943
9944
9944
9946
9946
9946
9946
9948
9948
9948
9948
9949
9949
9952
9952
9953
9953
9953
9953
9955
9955
9956
9956
9958
9958
9958
9958
9959
9959
9960
9960
9961
9961
9962
9962
9962
9962
9963
9963
9964
9964
9965
9965
9966
9966
9966
9966
9966
9966
9967
9967
9968
9968
9969
9969
9973
9973
9973
9973
9974
9974
9974
9974
9975
9975
9975
9975
9976
9976
9976
9976
9977
9977
9978
9978
9985
9985
9985
9985
9985
9985
9986
9986
9986
9986
9987
9987
9987
9987
9989
9989
9989
9989
9990
9990
9990
9990
9991
9991
9992
9992
9993
9993
9994
9994
9995
9995
9996
9996
9997
9997
9997
9997
9997
9997
